StartFontMetrics 2.0
Comment Copyright The digitally encoded machine readable software for producing the Typefaces licensed to you is copyrighted (c) 1988, 1995, 2002 Linotype Library GmbH or its affiliated companies. All rights reserved. This software is now the property of Heidelberger Druckmaschinen AG and its licensors, and may not be reproduced, used, displayed, modified, disclosed or transferred without the express written approval of Heidelberger Druckmaschinen AG. Part of the digital encoded machine readable software for producing the Typefaces licensed to you is copyrighted (c) 1988, 1999  Adobe Systems. All rights reserved. Part of this software is the property of Adobe Systems Incorporated and its licensors, and may not be reproduced, used, displayed, modified, disclosed or transferred without the express written approval of Adobe.
Comment UniqueID 3330035
Comment Panose 2 0 9 3 4 0 0 9 0 3
FullName Avenir LT 86 Heavy Oblique
FontName AvenirLT-HeavyOblique
FamilyName Avenir LT
Weight Heavy
Notice Avenir  is a Trademark of Heidelberger Druckmaschinen AG, which may be registered in certain jurisdictions, exclusively licensed through Linotype Library GmbH, a wholly owned subsidiary of Heidelberger Druckmaschinen AG.
Version 006.000
IsFixedPitch false
ItalicAngle -8.00
FontBBox -165 -250 1196 939
Ascender 756
Descender -228
XHeight 480
CapHeight 708
UnderlinePosition -100
UnderlineThickness 50
StdHW 108
StdVW 120
EncodingScheme AdobeStandardEncoding
StartCharMetrics 231
C 5 ; WX 260 ; N breve ; B 50 564 398 708 ;
C 6 ; WX 260 ; N dotaccent ; B 136 564 301 708 ;
C 8 ; WX 260 ; N ring ; B 107 553 334 757 ;
C 10 ; WX 260 ; N hungarumlaut ; B 58 564 518 708 ;
C 11 ; WX 260 ; N ogonek ; B -29 -234 174 6 ;
C 12 ; WX 260 ; N caron ; B 47 564 409 708 ;
C 13 ; WX 260 ; N dotlessi ; B 70 0 256 480 ;
C 25 ; WX 167 ; N fraction ; B -165 -32 430 740 ;
C 26 ; WX 593 ; N fi ; B 64 0 653 768 ;
C 27 ; WX 593 ; N fl ; B 64 0 645 768 ;
C 28 ; WX 519 ; N Lslash ; B 26 0 521 708 ;
C 29 ; WX 260 ; N lslash ; B 29 0 338 756 ;
C 30 ; WX 611 ; N Zcaron ; B 35 0 668 900 ;
C 31 ; WX 482 ; N zcaron ; B 34 0 520 708 ;
C 32 ; WX 296 ; N space ; B 0 0 0 0 ;
C 33 ; WX 296 ; N exclam ; B 71 -6 306 708 ;
C 34 ; WX 519 ; N quotedbl ; B 181 444 497 708 ;
C 35 ; WX 592 ; N numbersign ; B 76 0 614 708 ;
C 36 ; WX 592 ; N dollar ; B 41 -83 613 786 ;
C 37 ; WX 907 ; N percent ; B 89 -32 915 740 ;
C 38 ; WX 741 ; N ampersand ; B 55 -18 767 726 ;
C 39 ; WX 296 ; N quotesingle ; B 158 444 297 708 ;
C 40 ; WX 296 ; N parenleft ; B 65 -156 373 732 ;
C 41 ; WX 296 ; N parenright ; B 2 -156 310 732 ;
C 42 ; WX 463 ; N asterisk ; B 102 319 508 708 ;
C 43 ; WX 666 ; N plus ; B 97 32 653 574 ;
C 44 ; WX 296 ; N comma ; B 20 -126 249 138 ;
C 45 ; WX 315 ; N hyphen ; B 61 195 322 297 ;
C 46 ; WX 296 ; N period ; B 71 -6 244 148 ;
C 47 ; WX 389 ; N slash ; B -11 -48 487 758 ;
C 48 ; WX 592 ; N zero ; B 42 -12 647 720 ;
C 49 ; WX 592 ; N one ; B 138 0 486 708 ;
C 50 ; WX 592 ; N two ; B 59 0 624 720 ;
C 51 ; WX 592 ; N three ; B 67 -12 602 720 ;
C 52 ; WX 592 ; N four ; B 54 0 593 708 ;
C 53 ; WX 592 ; N five ; B 64 -12 603 708 ;
C 54 ; WX 592 ; N six ; B 54 -12 597 708 ;
C 55 ; WX 592 ; N seven ; B 99 0 621 708 ;
C 56 ; WX 592 ; N eight ; B 65 -12 603 720 ;
C 57 ; WX 592 ; N nine ; B 93 0 635 720 ;
C 58 ; WX 296 ; N colon ; B 71 -6 291 487 ;
C 59 ; WX 296 ; N semicolon ; B 20 -126 291 487 ;
C 60 ; WX 666 ; N less ; B 117 42 664 564 ;
C 61 ; WX 666 ; N equal ; B 84 162 665 444 ;
C 62 ; WX 666 ; N greater ; B 85 42 633 564 ;
C 63 ; WX 519 ; N question ; B 120 -6 583 726 ;
C 64 ; WX 800 ; N at ; B 50 -18 852 726 ;
C 65 ; WX 722 ; N A ; B 0 0 722 708 ;
C 66 ; WX 648 ; N B ; B 79 0 663 708 ;
C 67 ; WX 685 ; N C ; B 59 -18 748 726 ;
C 68 ; WX 759 ; N D ; B 79 0 800 708 ;
C 69 ; WX 611 ; N E ; B 79 0 646 708 ;
C 70 ; WX 574 ; N F ; B 79 0 634 708 ;
C 71 ; WX 778 ; N G ; B 59 -18 782 726 ;
C 72 ; WX 741 ; N H ; B 79 0 760 708 ;
C 73 ; WX 278 ; N I ; B 76 0 300 708 ;
C 74 ; WX 500 ; N J ; B 25 -18 524 708 ;
C 75 ; WX 685 ; N K ; B 79 0 772 708 ;
C 76 ; WX 519 ; N L ; B 79 0 521 708 ;
C 77 ; WX 926 ; N M ; B 82 0 942 708 ;
C 78 ; WX 796 ; N N ; B 79 0 815 708 ;
C 79 ; WX 833 ; N O ; B 59 -18 872 730 ;
C 80 ; WX 611 ; N P ; B 79 0 669 708 ;
C 81 ; WX 852 ; N Q ; B 60 0 865 726 ;
C 82 ; WX 630 ; N R ; B 79 0 681 708 ;
C 83 ; WX 574 ; N S ; B 41 -18 608 726 ;
C 84 ; WX 574 ; N T ; B 89 0 665 708 ;
C 85 ; WX 722 ; N U ; B 88 -18 744 708 ;
C 86 ; WX 667 ; N V ; B 95 0 768 708 ;
C 87 ; WX 981 ; N W ; B 98 0 1079 708 ;
C 88 ; WX 685 ; N X ; B 0 0 758 708 ;
C 89 ; WX 630 ; N Y ; B 84 0 742 708 ;
C 90 ; WX 611 ; N Z ; B 35 0 668 708 ;
C 91 ; WX 278 ; N bracketleft ; B 44 -156 359 732 ;
C 92 ; WX 389 ; N backslash ; B 104 -48 395 758 ;
C 93 ; WX 278 ; N bracketright ; B -1 -156 313 732 ;
C 94 ; WX 666 ; N asciicircum ; B 116 343 644 708 ;
C 95 ; WX 500 ; N underscore ; B -17 -125 489 -75 ;
C 96 ; WX 260 ; N grave ; B 40 564 255 708 ;
C 97 ; WX 537 ; N a ; B 41 -12 544 492 ;
C 98 ; WX 630 ; N b ; B 68 -12 639 756 ;
C 99 ; WX 482 ; N c ; B 56 -12 537 492 ;
C 100 ; WX 630 ; N d ; B 57 -12 667 756 ;
C 101 ; WX 574 ; N e ; B 56 -12 585 492 ;
C 102 ; WX 352 ; N f ; B 64 0 471 768 ;
C 103 ; WX 630 ; N g ; B 30 -240 628 492 ;
C 104 ; WX 574 ; N h ; B 68 0 561 756 ;
C 105 ; WX 260 ; N i ; B 70 0 302 715 ;
C 106 ; WX 260 ; N j ; B -69 -240 302 715 ;
C 107 ; WX 537 ; N k ; B 68 0 593 756 ;
C 108 ; WX 260 ; N l ; B 70 0 295 756 ;
C 109 ; WX 870 ; N m ; B 63 0 862 492 ;
C 110 ; WX 574 ; N n ; B 68 0 561 492 ;
C 111 ; WX 610 ; N o ; B 56 -12 620 492 ;
C 112 ; WX 630 ; N p ; B 36 -228 639 492 ;
C 113 ; WX 630 ; N q ; B 57 -228 628 492 ;
C 114 ; WX 389 ; N r ; B 68 0 442 492 ;
C 115 ; WX 444 ; N s ; B 33 -12 464 492 ;
C 116 ; WX 389 ; N t ; B 64 -12 429 619 ;
C 117 ; WX 574 ; N u ; B 78 -12 572 480 ;
C 118 ; WX 519 ; N v ; B 69 0 582 480 ;
C 119 ; WX 796 ; N w ; B 69 0 859 480 ;
C 120 ; WX 537 ; N x ; B -1 0 575 480 ;
C 121 ; WX 519 ; N y ; B -17 -240 582 480 ;
C 122 ; WX 482 ; N z ; B 34 0 502 480 ;
C 123 ; WX 278 ; N braceleft ; B 33 -156 414 732 ;
C 124 ; WX 222 ; N bar ; B 25 -250 266 750 ;
C 125 ; WX 278 ; N braceright ; B -56 -156 324 732 ;
C 126 ; WX 666 ; N asciitilde ; B 142 215 606 385 ;
C 128 ; WX 592 ; N Euro ; B 45 -12 636 720 ;
C 130 ; WX 296 ; N quotesinglbase ; B 34 -126 263 138 ;
C 131 ; WX 592 ; N florin ; B -20 -139 653 720 ;
C 132 ; WX 519 ; N quotedblbase ; B 41 -126 479 138 ;
C 133 ; WX 1000 ; N ellipsis ; B 90 -6 929 148 ;
C 134 ; WX 593 ; N dagger ; B 97 -126 622 708 ;
C 135 ; WX 593 ; N daggerdbl ; B 55 -126 618 708 ;
C 136 ; WX 260 ; N circumflex ; B 26 564 390 708 ;
C 137 ; WX 1167 ; N perthousand ; B 69 -32 1196 740 ;
C 138 ; WX 574 ; N Scaron ; B 41 -18 608 900 ;
C 139 ; WX 296 ; N guilsinglleft ; B 64 22 315 472 ;
C 140 ; WX 1000 ; N OE ; B 71 0 1031 708 ;
C 145 ; WX 296 ; N quoteleft ; B 113 444 342 708 ;
C 146 ; WX 296 ; N quoteright ; B 113 444 342 708 ;
C 147 ; WX 519 ; N quotedblleft ; B 119 444 559 708 ;
C 148 ; WX 519 ; N quotedblright ; B 119 444 559 708 ;
C 149 ; WX 500 ; N bullet ; B 108 177 489 531 ;
C 150 ; WX 500 ; N endash ; B 27 198 540 294 ;
C 151 ; WX 1000 ; N emdash ; B 27 198 1040 294 ;
C 152 ; WX 260 ; N tilde ; B 25 568 411 700 ;
C 153 ; WX 1000 ; N trademark ; B 126 296 1058 708 ;
C 154 ; WX 444 ; N scaron ; B 33 -12 501 708 ;
C 155 ; WX 296 ; N guilsinglright ; B 49 22 300 472 ;
C 156 ; WX 926 ; N oe ; B 48 -12 942 492 ;
C 159 ; WX 630 ; N Ydieresis ; B 84 0 742 900 ;
C 161 ; WX 296 ; N exclamdown ; B 57 -222 291 492 ;
C 162 ; WX 592 ; N cent ; B 92 -84 582 559 ;
C 163 ; WX 592 ; N sterling ; B 66 0 682 720 ;
C 164 ; WX 592 ; N currency ; B 45 -12 636 720 ;
C 165 ; WX 592 ; N yen ; B 90 0 678 708 ;
C 166 ; WX 222 ; N brokenbar ; B 35 -175 255 675 ;
C 167 ; WX 593 ; N section ; B 50 -144 589 726 ;
C 168 ; WX 260 ; N dieresis ; B 33 564 404 708 ;
C 169 ; WX 800 ; N copyright ; B 48 -18 849 726 ;
C 170 ; WX 349 ; N ordfeminine ; B 89 425 415 720 ;
C 171 ; WX 519 ; N guillemotleft ; B 64 22 538 472 ;
C 172 ; WX 666 ; N logicalnot ; B 109 147 665 444 ;
C 173 ; WX 666 ; N minus ; B 97 252 653 354 ;
C 174 ; WX 800 ; N registered ; B 48 -18 849 726 ;
C 175 ; WX 260 ; N macron ; B 52 595 383 673 ;
C 176 ; WX 400 ; N degree ; B 105 400 450 720 ;
C 177 ; WX 666 ; N plusminus ; B 66 32 663 574 ;
C 178 ; WX 385 ; N twosuperior ; B 71 289 448 720 ;
C 179 ; WX 385 ; N threesuperior ; B 82 283 445 720 ;
C 180 ; WX 260 ; N acute ; B 161 564 416 708 ;
C 181 ; WX 574 ; N mu ; B 36 -228 572 480 ;
C 182 ; WX 600 ; N paragraph ; B 88 -126 631 708 ;
C 183 ; WX 296 ; N periodcentered ; B 102 215 274 369 ;
C 184 ; WX 260 ; N cedilla ; B 23 -240 288 0 ;
C 185 ; WX 385 ; N onesuperior ; B 123 289 380 714 ;
C 186 ; WX 397 ; N ordmasculine ; B 96 425 457 720 ;
C 187 ; WX 519 ; N guillemotright ; B 49 22 523 472 ;
C 188 ; WX 889 ; N onequarter ; B 112 -32 883 740 ;
C 189 ; WX 889 ; N onehalf ; B 115 -32 910 740 ;
C 190 ; WX 889 ; N threequarters ; B 78 -32 889 740 ;
C 191 ; WX 519 ; N questiondown ; B 3 -240 465 492 ;
C 192 ; WX 722 ; N Agrave ; B 0 0 722 900 ;
C 193 ; WX 722 ; N Aacute ; B 0 0 722 900 ;
C 194 ; WX 722 ; N Acircumflex ; B 0 0 722 900 ;
C 195 ; WX 722 ; N Atilde ; B 0 0 722 892 ;
C 196 ; WX 722 ; N Adieresis ; B 0 0 722 900 ;
C 197 ; WX 722 ; N Aring ; B 0 0 722 939 ;
C 198 ; WX 1000 ; N AE ; B -6 0 1041 708 ;
C 199 ; WX 685 ; N Ccedilla ; B 61 -240 748 726 ;
C 200 ; WX 611 ; N Egrave ; B 79 0 646 900 ;
C 201 ; WX 611 ; N Eacute ; B 79 0 646 900 ;
C 202 ; WX 611 ; N Ecircumflex ; B 79 0 646 900 ;
C 203 ; WX 611 ; N Edieresis ; B 79 0 646 900 ;
C 204 ; WX 278 ; N Igrave ; B 76 0 300 900 ;
C 205 ; WX 278 ; N Iacute ; B 76 0 452 900 ;
C 206 ; WX 278 ; N Icircumflex ; B 62 0 426 900 ;
C 207 ; WX 278 ; N Idieresis ; B 68 0 439 900 ;
C 208 ; WX 759 ; N Eth ; B 58 0 800 708 ;
C 209 ; WX 796 ; N Ntilde ; B 79 0 815 892 ;
C 210 ; WX 833 ; N Ograve ; B 59 -18 872 900 ;
C 211 ; WX 833 ; N Oacute ; B 59 -18 872 900 ;
C 212 ; WX 833 ; N Ocircumflex ; B 59 -18 872 900 ;
C 213 ; WX 833 ; N Otilde ; B 59 -18 872 892 ;
C 214 ; WX 833 ; N Odieresis ; B 59 -18 872 900 ;
C 215 ; WX 666 ; N multiply ; B 93 45 652 557 ;
C 216 ; WX 833 ; N Oslash ; B 44 -36 880 755 ;
C 217 ; WX 722 ; N Ugrave ; B 88 -18 744 900 ;
C 218 ; WX 722 ; N Uacute ; B 88 -18 744 900 ;
C 219 ; WX 722 ; N Ucircumflex ; B 88 -18 744 900 ;
C 220 ; WX 722 ; N Udieresis ; B 88 -18 744 900 ;
C 221 ; WX 630 ; N Yacute ; B 84 0 742 900 ;
C 222 ; WX 611 ; N Thorn ; B 79 0 650 708 ;
C 223 ; WX 611 ; N germandbls ; B 56 -12 611 768 ;
C 224 ; WX 537 ; N agrave ; B 41 -12 544 708 ;
C 225 ; WX 537 ; N aacute ; B 41 -12 555 708 ;
C 226 ; WX 537 ; N acircumflex ; B 41 -12 544 708 ;
C 227 ; WX 537 ; N atilde ; B 41 -12 550 700 ;
C 228 ; WX 537 ; N adieresis ; B 41 -12 544 708 ;
C 229 ; WX 537 ; N aring ; B 41 -12 544 757 ;
C 230 ; WX 852 ; N ae ; B 40 -12 868 495 ;
C 231 ; WX 482 ; N ccedilla ; B 59 -240 537 492 ;
C 232 ; WX 574 ; N egrave ; B 56 -12 585 708 ;
C 233 ; WX 574 ; N eacute ; B 56 -12 585 708 ;
C 234 ; WX 574 ; N ecircumflex ; B 56 -12 585 708 ;
C 235 ; WX 574 ; N edieresis ; B 56 -12 585 708 ;
C 236 ; WX 260 ; N igrave ; B 52 0 267 708 ;
C 237 ; WX 260 ; N iacute ; B 70 0 404 708 ;
C 238 ; WX 260 ; N icircumflex ; B 26 0 390 708 ;
C 239 ; WX 260 ; N idieresis ; B 33 0 404 708 ;
C 240 ; WX 610 ; N eth ; B 56 -12 625 792 ;
C 241 ; WX 574 ; N ntilde ; B 68 0 568 700 ;
C 242 ; WX 610 ; N ograve ; B 56 -12 620 708 ;
C 243 ; WX 610 ; N oacute ; B 56 -12 620 708 ;
C 244 ; WX 610 ; N ocircumflex ; B 56 -12 620 708 ;
C 245 ; WX 610 ; N otilde ; B 56 -12 620 700 ;
C 246 ; WX 610 ; N odieresis ; B 56 -12 620 708 ;
C 247 ; WX 666 ; N divide ; B 97 48 653 558 ;
C 248 ; WX 610 ; N oslash ; B 36 -34 644 514 ;
C 249 ; WX 574 ; N ugrave ; B 78 -12 572 708 ;
C 250 ; WX 574 ; N uacute ; B 78 -12 573 708 ;
C 251 ; WX 574 ; N ucircumflex ; B 78 -12 572 708 ;
C 252 ; WX 574 ; N udieresis ; B 78 -12 572 708 ;
C 253 ; WX 519 ; N yacute ; B -17 -240 582 708 ;
C 254 ; WX 630 ; N thorn ; B 36 -228 639 756 ;
C 255 ; WX 519 ; N ydieresis ; B -17 -240 582 708 ;
C -1 ; WX 296 ; N nbspace ; B 0 0 0 0 ;
C -1 ; WX 592 ; N oldcurrency ; B 57 95 633 614 ;
EndCharMetrics
StartKernData
StartKernPairs 98
KPX A T -92
KPX A V -62
KPX A W -25
KPX A Y -74
KPX A quoteright -74
KPX A v -18
KPX A w -18
KPX A y -18
KPX F A -55
KPX F comma -129
KPX F period -129
KPX L T -92
KPX L V -92
KPX L W -55
KPX L Y -111
KPX L quoteright -74
KPX L y -37
KPX P A -74
KPX P comma -169
KPX P period -169
KPX R T -18
KPX R V -18
KPX R W -18
KPX R Y -37
KPX T A -92
KPX T a -100
KPX T c -111
KPX T colon -83
KPX T comma -111
KPX T e -111
KPX T hyphen -129
KPX T o -111
KPX T period -111
KPX T r -92
KPX T s -111
KPX T semicolon -83
KPX T u -92
KPX T w -111
KPX T y -111
KPX V A -55
KPX V a -55
KPX V colon -46
KPX V comma -129
KPX V e -55
KPX V hyphen -55
KPX V i 10
KPX V o -55
KPX V period -129
KPX V r -37
KPX V semicolon -46
KPX V u -37
KPX V y -18
KPX W A -25
KPX W a -37
KPX W colon -18
KPX W comma -74
KPX W e -18
KPX W hyphen -28
KPX W o -18
KPX W period -74
KPX W r -18
KPX W semicolon -18
KPX W u -18
KPX Y A -74
KPX Y a -92
KPX Y colon -92
KPX Y comma -111
KPX Y e -92
KPX Y hyphen -111
KPX Y i -9
KPX Y o -92
KPX Y p -86
KPX Y period -111
KPX Y q -104
KPX Y semicolon -92
KPX Y u -86
KPX Y v -55
KPX f f -18
KPX f quoteright 18
KPX r c -18
KPX r comma -92
KPX r d -18
KPX r e -18
KPX r hyphen -55
KPX r n 18
KPX r o -18
KPX r period -92
KPX r q -18
KPX v comma -74
KPX v period -74
KPX w comma -55
KPX w period -55
KPX y comma -92
KPX y period -92
KPX quoteleft quoteleft -79
KPX quoteright quoteright -79
KPX quoteright s -74
KPX quoteright t -18
EndKernPairs
EndKernData
EndFontMetrics
