StartFontMetrics 2.0
Comment Copyright The digitally encoded machine readable software for producing the Typefaces licensed to you is copyrighted (c) 1988, 1995, 2002 Linotype Library GmbH or its affiliated companies. All rights reserved. This software is now the property of Heidelberger Druckmaschinen AG and its licensors, and may not be reproduced, used, displayed, modified, disclosed or transferred without the express written approval of Heidelberger Druckmaschinen AG. Part of the digital encoded machine readable software for producing the Typefaces licensed to you is copyrighted (c) 1988, 1999  Adobe Systems. All rights reserved. Part of this software is the property of Adobe Systems Incorporated and its licensors, and may not be reproduced, used, displayed, modified, disclosed or transferred without the express written approval of Adobe.
Comment UniqueID 3330039
Comment Panose 2 0 6 3 2 0 0 2 0 3
FullName Avenir LT 65 Medium Oblique
FontName AvenirLT-MediumOblique
FamilyName Avenir LT
Weight Medium
Notice Avenir  is a Trademark of Heidelberger Druckmaschinen AG, which may be registered in certain jurisdictions, exclusively licensed through Linotype Library GmbH, a wholly owned subsidiary of Heidelberger Druckmaschinen AG.
Version 006.000
IsFixedPitch false
ItalicAngle -8.00
FontBBox -166 -282 1068 924
Ascender 756
Descender -282
XHeight 474
CapHeight 708
UnderlinePosition -100
UnderlineThickness 50
StdHW 84
StdVW 96
EncodingScheme AdobeStandardEncoding
StartCharMetrics 231
C 5 ; WX 240 ; N breve ; B 54 564 374 702 ;
C 6 ; WX 240 ; N dotaccent ; B 144 594 278 714 ;
C 8 ; WX 240 ; N ring ; B 100 553 321 750 ;
C 10 ; WX 240 ; N hungarumlaut ; B 28 564 448 708 ;
C 11 ; WX 240 ; N ogonek ; B 0 -221 189 7 ;
C 12 ; WX 240 ; N caron ; B 53 564 383 708 ;
C 13 ; WX 240 ; N dotlessi ; B 75 0 230 474 ;
C 25 ; WX 167 ; N fraction ; B -166 -32 431 740 ;
C 26 ; WX 556 ; N fi ; B 56 0 596 768 ;
C 27 ; WX 556 ; N fl ; B 56 0 586 768 ;
C 28 ; WX 519 ; N Lslash ; B 39 0 524 708 ;
C 29 ; WX 240 ; N lslash ; B 27 0 320 756 ;
C 30 ; WX 593 ; N Zcaron ; B 32 0 653 892 ;
C 31 ; WX 463 ; N zcaron ; B 35 0 495 708 ;
C 32 ; WX 278 ; N space ; B 0 0 0 0 ;
C 33 ; WX 278 ; N exclam ; B 76 -6 283 708 ;
C 34 ; WX 519 ; N quotedbl ; B 210 462 471 708 ;
C 35 ; WX 556 ; N numbersign ; B 53 0 601 708 ;
C 36 ; WX 556 ; N dollar ; B 37 -84 587 792 ;
C 37 ; WX 852 ; N percent ; B 99 -31 850 740 ;
C 38 ; WX 722 ; N ampersand ; B 58 -18 740 720 ;
C 39 ; WX 278 ; N quotesingle ; B 164 462 276 708 ;
C 40 ; WX 278 ; N parenleft ; B 65 -156 350 732 ;
C 41 ; WX 278 ; N parenright ; B 7 -156 292 732 ;
C 42 ; WX 464 ; N asterisk ; B 110 336 504 708 ;
C 43 ; WX 666 ; N plus ; B 102 36 647 570 ;
C 44 ; WX 278 ; N comma ; B 29 -132 229 114 ;
C 45 ; WX 316 ; N hyphen ; B 62 200 320 284 ;
C 46 ; WX 278 ; N period ; B 76 -6 218 126 ;
C 47 ; WX 389 ; N slash ; B -2 -44 490 752 ;
C 48 ; WX 556 ; N zero ; B 62 -12 592 720 ;
C 49 ; WX 556 ; N one ; B 159 0 464 708 ;
C 50 ; WX 556 ; N two ; B 46 0 601 726 ;
C 51 ; WX 556 ; N three ; B 65 -12 584 726 ;
C 52 ; WX 556 ; N four ; B 55 0 565 708 ;
C 53 ; WX 556 ; N five ; B 52 -12 569 708 ;
C 54 ; WX 556 ; N six ; B 45 -12 574 708 ;
C 55 ; WX 556 ; N seven ; B 97 0 585 708 ;
C 56 ; WX 556 ; N eight ; B 56 -12 575 720 ;
C 57 ; WX 556 ; N nine ; B 80 0 608 720 ;
C 58 ; WX 278 ; N colon ; B 76 -6 267 480 ;
C 59 ; WX 278 ; N semicolon ; B 29 -132 267 479 ;
C 60 ; WX 666 ; N less ; B 102 43 678 564 ;
C 61 ; WX 666 ; N equal ; B 91 185 658 420 ;
C 62 ; WX 666 ; N greater ; B 71 42 647 563 ;
C 63 ; WX 500 ; N question ; B 123 -6 559 726 ;
C 64 ; WX 800 ; N at ; B 64 -18 839 726 ;
C 65 ; WX 704 ; N A ; B 1 0 703 708 ;
C 66 ; WX 630 ; N B ; B 91 0 642 708 ;
C 67 ; WX 704 ; N C ; B 70 -18 749 726 ;
C 68 ; WX 741 ; N D ; B 75 0 761 708 ;
C 69 ; WX 611 ; N E ; B 91 0 646 708 ;
C 70 ; WX 574 ; N F ; B 91 0 634 708 ;
C 71 ; WX 778 ; N G ; B 68 -18 768 726 ;
C 72 ; WX 741 ; N H ; B 91 0 748 708 ;
C 73 ; WX 278 ; N I ; B 91 0 285 708 ;
C 74 ; WX 482 ; N J ; B 28 -18 506 708 ;
C 75 ; WX 648 ; N K ; B 91 0 740 708 ;
C 76 ; WX 519 ; N L ; B 91 0 524 708 ;
C 77 ; WX 906 ; N M ; B 84 0 920 708 ;
C 78 ; WX 796 ; N N ; B 91 0 803 708 ;
C 79 ; WX 832 ; N O ; B 67 -18 863 726 ;
C 80 ; WX 593 ; N P ; B 91 0 650 708 ;
C 81 ; WX 832 ; N Q ; B 68 0 853 726 ;
C 82 ; WX 611 ; N R ; B 91 0 650 708 ;
C 83 ; WX 556 ; N S ; B 44 -18 587 726 ;
C 84 ; WX 574 ; N T ; B 97 0 661 708 ;
C 85 ; WX 704 ; N U ; B 91 -18 724 708 ;
C 86 ; WX 630 ; N V ; B 92 0 734 708 ;
C 87 ; WX 962 ; N W ; B 99 0 1059 708 ;
C 88 ; WX 648 ; N X ; B -2 0 724 708 ;
C 89 ; WX 612 ; N Y ; B 88 0 720 708 ;
C 90 ; WX 593 ; N Z ; B 32 0 653 708 ;
C 91 ; WX 278 ; N bracketleft ; B 50 -156 347 732 ;
C 92 ; WX 389 ; N backslash ; B 101 -44 386 752 ;
C 93 ; WX 278 ; N bracketright ; B 10 -156 307 732 ;
C 94 ; WX 666 ; N asciicircum ; B 118 276 624 708 ;
C 95 ; WX 500 ; N underscore ; B -17 -125 489 -75 ;
C 96 ; WX 240 ; N grave ; B 52 564 264 708 ;
C 97 ; WX 519 ; N a ; B 50 -12 513 486 ;
C 98 ; WX 611 ; N b ; B 68 -12 618 756 ;
C 99 ; WX 482 ; N c ; B 57 -12 532 485 ;
C 100 ; WX 611 ; N d ; B 58 -12 648 756 ;
C 101 ; WX 556 ; N e ; B 53 -12 565 486 ;
C 102 ; WX 333 ; N f ; B 56 0 437 768 ;
C 103 ; WX 611 ; N g ; B 30 -240 608 486 ;
C 104 ; WX 556 ; N h ; B 68 0 547 756 ;
C 105 ; WX 240 ; N i ; B 75 0 280 710 ;
C 106 ; WX 240 ; N j ; B -70 -240 280 710 ;
C 107 ; WX 519 ; N k ; B 68 0 552 756 ;
C 108 ; WX 240 ; N l ; B 75 0 270 756 ;
C 109 ; WX 852 ; N m ; B 68 0 837 486 ;
C 110 ; WX 556 ; N n ; B 68 0 547 486 ;
C 111 ; WX 594 ; N o ; B 58 -12 601 486 ;
C 112 ; WX 611 ; N p ; B 28 -282 618 486 ;
C 113 ; WX 611 ; N q ; B 58 -228 608 486 ;
C 114 ; WX 370 ; N r ; B 68 0 408 486 ;
C 115 ; WX 444 ; N s ; B 38 -12 446 486 ;
C 116 ; WX 370 ; N t ; B 54 -12 387 607 ;
C 117 ; WX 556 ; N u ; B 73 -12 553 474 ;
C 118 ; WX 500 ; N v ; B 76 0 554 474 ;
C 119 ; WX 759 ; N w ; B 76 0 813 474 ;
C 120 ; WX 519 ; N x ; B 6 0 548 474 ;
C 121 ; WX 500 ; N y ; B -9 -240 554 474 ;
C 122 ; WX 463 ; N z ; B 35 0 479 474 ;
C 123 ; WX 333 ; N braceleft ; B 74 -156 405 732 ;
C 124 ; WX 222 ; N bar ; B 69 -18 255 756 ;
C 125 ; WX 333 ; N braceright ; B 7 -156 338 732 ;
C 126 ; WX 666 ; N asciitilde ; B 136 228 613 378 ;
C 128 ; WX 556 ; N Euro ; B 55 -12 620 720 ;
C 130 ; WX 278 ; N quotesinglbase ; B 37 -132 237 114 ;
C 131 ; WX 556 ; N florin ; B -28 -144 627 720 ;
C 132 ; WX 519 ; N quotedblbase ; B 69 -132 446 114 ;
C 133 ; WX 1000 ; N ellipsis ; B 104 -6 912 126 ;
C 134 ; WX 556 ; N dagger ; B 94 -126 591 708 ;
C 135 ; WX 556 ; N daggerdbl ; B 50 -126 588 708 ;
C 136 ; WX 240 ; N circumflex ; B 33 564 363 708 ;
C 137 ; WX 1056 ; N perthousand ; B 85 -31 1068 740 ;
C 138 ; WX 556 ; N Scaron ; B 44 -18 587 892 ;
C 139 ; WX 315 ; N guilsinglleft ; B 87 27 319 459 ;
C 140 ; WX 981 ; N OE ; B 78 0 1009 708 ;
C 145 ; WX 278 ; N quoteleft ; B 120 462 320 708 ;
C 146 ; WX 278 ; N quoteright ; B 120 462 320 708 ;
C 147 ; WX 519 ; N quotedblleft ; B 152 462 529 708 ;
C 148 ; WX 519 ; N quotedblright ; B 152 462 529 708 ;
C 149 ; WX 500 ; N bullet ; B 108 177 489 531 ;
C 150 ; WX 500 ; N endash ; B 28 204 539 282 ;
C 151 ; WX 1000 ; N emdash ; B 28 204 1039 282 ;
C 152 ; WX 240 ; N tilde ; B 32 576 383 684 ;
C 153 ; WX 1000 ; N trademark ; B 123 296 1000 708 ;
C 154 ; WX 444 ; N scaron ; B 38 -12 485 708 ;
C 155 ; WX 315 ; N guilsinglright ; B 63 27 294 459 ;
C 156 ; WX 926 ; N oe ; B 52 -12 941 486 ;
C 159 ; WX 612 ; N Ydieresis ; B 88 0 720 898 ;
C 161 ; WX 278 ; N exclamdown ; B 62 -222 269 492 ;
C 162 ; WX 556 ; N cent ; B 86 -78 566 552 ;
C 163 ; WX 556 ; N sterling ; B 72 0 654 720 ;
C 164 ; WX 556 ; N currency ; B 55 -12 620 720 ;
C 165 ; WX 556 ; N yen ; B 90 0 659 708 ;
C 166 ; WX 222 ; N brokenbar ; B 69 -18 255 756 ;
C 167 ; WX 556 ; N section ; B 58 -144 570 726 ;
C 168 ; WX 240 ; N dieresis ; B 42 594 380 714 ;
C 169 ; WX 800 ; N copyright ; B 48 -18 849 726 ;
C 170 ; WX 337 ; N ordfeminine ; B 96 419 401 720 ;
C 171 ; WX 500 ; N guillemotleft ; B 80 27 510 459 ;
C 172 ; WX 666 ; N logicalnot ; B 113 141 658 420 ;
C 173 ; WX 666 ; N minus ; B 102 264 647 342 ;
C 174 ; WX 800 ; N registered ; B 48 -18 849 726 ;
C 175 ; WX 240 ; N macron ; B 59 600 356 666 ;
C 176 ; WX 400 ; N degree ; B 119 422 439 720 ;
C 177 ; WX 666 ; N plusminus ; B 73 51 654 556 ;
C 178 ; WX 361 ; N twosuperior ; B 66 289 428 720 ;
C 179 ; WX 361 ; N threesuperior ; B 77 283 420 720 ;
C 180 ; WX 240 ; N acute ; B 132 564 384 708 ;
C 181 ; WX 556 ; N mu ; B 36 -228 553 474 ;
C 182 ; WX 600 ; N paragraph ; B 106 -126 626 708 ;
C 183 ; WX 278 ; N periodcentered ; B 110 237 252 369 ;
C 184 ; WX 240 ; N cedilla ; B -23 -228 223 0 ;
C 185 ; WX 361 ; N onesuperior ; B 113 289 326 720 ;
C 186 ; WX 386 ; N ordmasculine ; B 95 419 448 720 ;
C 187 ; WX 500 ; N guillemotright ; B 57 27 486 459 ;
C 188 ; WX 834 ; N onequarter ; B 119 -32 823 740 ;
C 189 ; WX 834 ; N onehalf ; B 117 -32 856 740 ;
C 190 ; WX 834 ; N threequarters ; B 76 -32 843 740 ;
C 191 ; WX 500 ; N questiondown ; B 7 -240 444 492 ;
C 192 ; WX 704 ; N Agrave ; B 1 0 703 892 ;
C 193 ; WX 704 ; N Aacute ; B 1 0 703 892 ;
C 194 ; WX 704 ; N Acircumflex ; B 1 0 703 892 ;
C 195 ; WX 704 ; N Atilde ; B 1 0 703 868 ;
C 196 ; WX 704 ; N Adieresis ; B 1 0 703 898 ;
C 197 ; WX 704 ; N Aring ; B 1 0 703 924 ;
C 198 ; WX 963 ; N AE ; B -8 0 1004 708 ;
C 199 ; WX 704 ; N Ccedilla ; B 70 -228 749 726 ;
C 200 ; WX 611 ; N Egrave ; B 91 0 646 892 ;
C 201 ; WX 611 ; N Eacute ; B 91 0 646 892 ;
C 202 ; WX 611 ; N Ecircumflex ; B 91 0 646 892 ;
C 203 ; WX 611 ; N Edieresis ; B 91 0 646 898 ;
C 204 ; WX 278 ; N Igrave ; B 91 0 309 892 ;
C 205 ; WX 278 ; N Iacute ; B 91 0 429 892 ;
C 206 ; WX 278 ; N Icircumflex ; B 78 0 408 892 ;
C 207 ; WX 278 ; N Idieresis ; B 87 0 424 898 ;
C 208 ; WX 741 ; N Eth ; B 49 0 761 708 ;
C 209 ; WX 796 ; N Ntilde ; B 91 0 803 868 ;
C 210 ; WX 832 ; N Ograve ; B 67 -18 863 892 ;
C 211 ; WX 832 ; N Oacute ; B 67 -18 863 892 ;
C 212 ; WX 832 ; N Ocircumflex ; B 67 -18 863 892 ;
C 213 ; WX 832 ; N Otilde ; B 67 -18 863 868 ;
C 214 ; WX 832 ; N Odieresis ; B 67 -18 863 898 ;
C 215 ; WX 666 ; N multiply ; B 80 36 671 570 ;
C 216 ; WX 832 ; N Oslash ; B 56 -30 868 740 ;
C 217 ; WX 704 ; N Ugrave ; B 91 -18 724 892 ;
C 218 ; WX 704 ; N Uacute ; B 91 -18 724 892 ;
C 219 ; WX 704 ; N Ucircumflex ; B 91 -18 724 892 ;
C 220 ; WX 704 ; N Udieresis ; B 91 -18 724 898 ;
C 221 ; WX 612 ; N Yacute ; B 88 0 720 892 ;
C 222 ; WX 593 ; N Thorn ; B 91 0 630 708 ;
C 223 ; WX 611 ; N germandbls ; B 68 -12 604 768 ;
C 224 ; WX 519 ; N agrave ; B 50 -12 513 708 ;
C 225 ; WX 519 ; N aacute ; B 50 -12 524 708 ;
C 226 ; WX 519 ; N acircumflex ; B 50 -12 513 708 ;
C 227 ; WX 519 ; N atilde ; B 50 -12 523 684 ;
C 228 ; WX 519 ; N adieresis ; B 50 -12 520 714 ;
C 229 ; WX 519 ; N aring ; B 50 -12 513 750 ;
C 230 ; WX 852 ; N ae ; B 47 -18 858 486 ;
C 231 ; WX 482 ; N ccedilla ; B 57 -228 532 485 ;
C 232 ; WX 556 ; N egrave ; B 53 -12 565 708 ;
C 233 ; WX 556 ; N eacute ; B 53 -12 565 708 ;
C 234 ; WX 556 ; N ecircumflex ; B 53 -12 565 708 ;
C 235 ; WX 556 ; N edieresis ; B 53 -12 565 714 ;
C 236 ; WX 240 ; N igrave ; B 52 0 264 708 ;
C 237 ; WX 240 ; N iacute ; B 75 0 384 708 ;
C 238 ; WX 240 ; N icircumflex ; B 33 0 363 708 ;
C 239 ; WX 240 ; N idieresis ; B 42 0 380 714 ;
C 240 ; WX 594 ; N eth ; B 58 -12 608 782 ;
C 241 ; WX 556 ; N ntilde ; B 68 0 547 684 ;
C 242 ; WX 594 ; N ograve ; B 58 -12 601 708 ;
C 243 ; WX 594 ; N oacute ; B 58 -12 601 708 ;
C 244 ; WX 594 ; N ocircumflex ; B 58 -12 601 708 ;
C 245 ; WX 594 ; N otilde ; B 58 -12 601 684 ;
C 246 ; WX 594 ; N odieresis ; B 58 -12 601 714 ;
C 247 ; WX 666 ; N divide ; B 102 68 647 536 ;
C 248 ; WX 594 ; N oslash ; B 41 -32 634 503 ;
C 249 ; WX 556 ; N ugrave ; B 73 -12 553 708 ;
C 250 ; WX 556 ; N uacute ; B 73 -12 553 708 ;
C 251 ; WX 556 ; N ucircumflex ; B 73 -12 553 708 ;
C 252 ; WX 556 ; N udieresis ; B 73 -12 553 714 ;
C 253 ; WX 500 ; N yacute ; B -9 -240 554 708 ;
C 254 ; WX 611 ; N thorn ; B 36 -228 618 756 ;
C 255 ; WX 500 ; N ydieresis ; B -9 -240 554 714 ;
C -1 ; WX 278 ; N nbspace ; B 0 0 0 0 ;
C -1 ; WX 556 ; N oldcurrency ; B 42 98 612 612 ;
EndCharMetrics
StartKernData
StartKernPairs 95
KPX A y -18
KPX A w -18
KPX A v -18
KPX A quoteright -74
KPX A Y -74
KPX A W -24
KPX A V -46
KPX A T -92
KPX F period -157
KPX F comma -157
KPX F A -55
KPX L y -37
KPX L quoteright -111
KPX L Y -111
KPX L W -55
KPX L V -92
KPX L T -92
KPX P period -179
KPX P comma -179
KPX P A -74
KPX R Y -18
KPX R T -18
KPX T y -111
KPX T w -111
KPX T u -101
KPX T semicolon -111
KPX T s -111
KPX T r -92
KPX T period -111
KPX T o -111
KPX T hyphen -129
KPX T e -111
KPX T comma -111
KPX T colon -111
KPX T c -111
KPX T a -111
KPX T A -92
KPX V y -18
KPX V u -37
KPX V semicolon -46
KPX V r -37
KPX V period -129
KPX V o -55
KPX V i -18
KPX V hyphen -55
KPX V e -55
KPX V comma -129
KPX V colon -46
KPX V a -55
KPX V A -46
KPX W u -18
KPX W semicolon -18
KPX W r -18
KPX W period -90
KPX W o -47
KPX W e -47
KPX W comma -90
KPX W colon -18
KPX W a -47
KPX W A -24
KPX Y v -55
KPX Y u -74
KPX Y semicolon -92
KPX Y q -92
KPX Y period -139
KPX Y p -74
KPX Y o -111
KPX Y i -37
KPX Y hyphen -111
KPX Y e -111
KPX Y comma -139
KPX Y colon -92
KPX Y a -92
KPX Y A -74
KPX f quoteright 18
KPX f f -18
KPX r q -18
KPX r period -92
KPX r o -18
KPX r hyphen -55
KPX r g -18
KPX r e -18
KPX r d -18
KPX r comma -92
KPX r c -18
KPX v period -74
KPX v comma -74
KPX w period -55
KPX w comma -55
KPX y period -74
KPX y comma -74
KPX quoteleft quoteleft -101
KPX quoteright t -18
KPX quoteright s -74
KPX quoteright quoteright -101
EndKernPairs
EndKernData
EndFontMetrics
