StartFontMetrics 2.0
Comment Copyright (c) 1991 Adobe Systems Incorporated.  All Rights Reserved.
Comment Creation Date: Wed Jun  3 11:31:54 1992
Comment UniqueID 263428
Comment VMusage 17922 23099
FontName BemboExpert-BoldItalic
FullName Bembo Expert Bold Italic
FamilyName Bembo Expert
Weight Bold
ItalicAngle -12
IsFixedPitch false
FontBBox -197 -233 1102 770 
UnderlinePosition -100
UnderlineThickness 50
Version 001.003
Notice Copyright (c) 1991 Adobe Systems Incorporated.  All Rights Reserved.Bembo Expert is a registered trademark of The Monotype Corporation plc.
EncodingScheme FontSpecific
StartCharMetrics 86
C 32 ; WX 278 ; N space ; B 180 0 180 0 ;
C 36 ; WX 292 ; N dollaroldstyle ; B 28 -57 301 356 ;
C 37 ; WX 292 ; N dollarsuperior ; B 81 253 342 655 ;
C 40 ; WX 187 ; N parenleftsuperior ; B 104 167 332 718 ;
C 41 ; WX 187 ; N parenrightsuperior ; B -13 167 215 718 ;
C 42 ; WX 500 ; N twodotenleader ; B 58 -11 442 132 ;
C 43 ; WX 500 ; N onedotenleader ; B 183 -11 317 132 ;
C 44 ; WX 323 ; N comma ; B 13 -165 212 134 ;
C 45 ; WX 417 ; N hyphen ; B 33 153 399 253 ;
C 46 ; WX 323 ; N period ; B 79 -11 212 132 ;
C 47 ; WX 219 ; N fraction ; B -76 -29 395 672 ;
C 48 ; WX 469 ; N zerooldstyle ; B 45 -12 437 472 ;
C 49 ; WX 469 ; N oneoldstyle ; B 56 0 364 472 ;
C 50 ; WX 469 ; N twooldstyle ; B 28 0 433 472 ;
C 51 ; WX 469 ; N threeoldstyle ; B -33 -164 439 472 ;
C 52 ; WX 469 ; N fouroldstyle ; B 27 -164 421 472 ;
C 53 ; WX 469 ; N fiveoldstyle ; B -7 -164 422 490 ;
C 54 ; WX 469 ; N sixoldstyle ; B 38 -12 494 669 ;
C 55 ; WX 469 ; N sevenoldstyle ; B 41 -164 465 465 ;
C 56 ; WX 469 ; N eightoldstyle ; B 38 -12 465 625 ;
C 57 ; WX 469 ; N nineoldstyle ; B -5 -185 430 472 ;
C 58 ; WX 323 ; N colon ; B 79 -11 271 419 ;
C 59 ; WX 323 ; N semicolon ; B 13 -165 271 419 ;
C 60 ; WX 208 ; N commasuperior ; B 76 203 218 390 ;
C 61 ; WX 750 ; N threequartersemdash ; B -5 205 755 295 ;
C 62 ; WX 208 ; N periodsuperior ; B 114 298 213 390 ;
C 65 ; WX 302 ; N asuperior ; B 79 298 337 556 ;
C 66 ; WX 281 ; N bsuperior ; B 87 298 322 706 ;
C 67 ; WX 208 ; N centsuperior ; B 65 202 268 615 ;
C 68 ; WX 281 ; N dsuperior ; B 74 298 354 706 ;
C 69 ; WX 240 ; N esuperior ; B 79 298 296 556 ;
C 73 ; WX 187 ; N isuperior ; B 77 298 245 688 ;
C 76 ; WX 177 ; N lsuperior ; B 94 298 240 706 ;
C 77 ; WX 490 ; N msuperior ; B 78 298 536 556 ;
C 78 ; WX 323 ; N nsuperior ; B 71 298 370 556 ;
C 79 ; WX 292 ; N osuperior ; B 82 298 328 556 ;
C 82 ; WX 208 ; N rsuperior ; B 78 298 292 556 ;
C 83 ; WX 219 ; N ssuperior ; B 61 298 266 556 ;
C 84 ; WX 198 ; N tsuperior ; B 96 298 260 630 ;
C 86 ; WX 531 ; N ff ; B -190 -233 717 672 ;
C 87 ; WX 521 ; N fi ; B -197 -233 502 672 ;
C 88 ; WX 521 ; N fl ; B -197 -233 502 672 ;
C 89 ; WX 750 ; N ffi ; B -192 -233 721 672 ;
C 90 ; WX 750 ; N ffl ; B -194 -233 729 672 ;
C 91 ; WX 187 ; N parenleftinferior ; B 62 -113 290 438 ;
C 93 ; WX 187 ; N parenrightinferior ; B -55 -113 173 438 ;
C 95 ; WX 271 ; N hyphensuperior ; B 67 396 319 463 ;
C 123 ; WX 729 ; N colonmonetary ; B 88 -102 736 770 ;
C 124 ; WX 375 ; N onefitted ; B 59 0 386 636 ;
C 125 ; WX 1073 ; N rupiah ; B -5 -227 1102 621 ;
C 162 ; WX 208 ; N centoldstyle ; B 12 -112 230 312 ;
C 178 ; WX 500 ; N figuredash ; B -6 205 506 295 ;
C 179 ; WX 271 ; N hypheninferior ; B 35 91 287 158 ;
C 188 ; WX 844 ; N onequarter ; B 114 -29 770 672 ;
C 189 ; WX 844 ; N onehalf ; B 115 -29 775 672 ;
C 190 ; WX 844 ; N threequarters ; B 92 -29 769 672 ;
C 192 ; WX 844 ; N oneeighth ; B 115 -29 789 672 ;
C 193 ; WX 844 ; N threeeighths ; B 92 -29 788 672 ;
C 194 ; WX 844 ; N fiveeighths ; B 111 -29 789 672 ;
C 195 ; WX 844 ; N seveneighths ; B 146 -29 788 672 ;
C 196 ; WX 844 ; N onethird ; B 115 -29 768 672 ;
C 197 ; WX 844 ; N twothirds ; B 75 -29 767 672 ;
C 200 ; WX 292 ; N zerosuperior ; B 84 298 344 636 ;
C 201 ; WX 292 ; N onesuperior ; B 98 305 304 636 ;
C 202 ; WX 292 ; N twosuperior ; B 59 305 333 636 ;
C 203 ; WX 292 ; N threesuperior ; B 76 298 332 636 ;
C 204 ; WX 292 ; N foursuperior ; B 76 299 338 636 ;
C 205 ; WX 292 ; N fivesuperior ; B 71 298 353 640 ;
C 206 ; WX 292 ; N sixsuperior ; B 85 298 358 636 ;
C 207 ; WX 292 ; N sevensuperior ; B 110 298 361 629 ;
C 208 ; WX 292 ; N eightsuperior ; B 85 298 347 636 ;
C 209 ; WX 292 ; N ninesuperior ; B 70 298 345 636 ;
C 210 ; WX 292 ; N zeroinferior ; B 27 -7 287 331 ;
C 211 ; WX 292 ; N oneinferior ; B 41 0 247 331 ;
C 212 ; WX 292 ; N twoinferior ; B 2 0 276 331 ;
C 213 ; WX 292 ; N threeinferior ; B 13 -7 269 331 ;
C 214 ; WX 292 ; N fourinferior ; B 19 -7 281 331 ;
C 215 ; WX 292 ; N fiveinferior ; B 14 -7 296 335 ;
C 216 ; WX 292 ; N sixinferior ; B -2 -7 271 331 ;
C 217 ; WX 292 ; N seveninferior ; B 55 -7 306 324 ;
C 218 ; WX 292 ; N eightinferior ; B 28 -7 290 331 ;
C 219 ; WX 292 ; N nineinferior ; B 19 -7 294 331 ;
C 220 ; WX 208 ; N centinferior ; B 8 -103 211 310 ;
C 221 ; WX 292 ; N dollarinferior ; B 24 -52 285 350 ;
C 222 ; WX 208 ; N periodinferior ; B 43 -7 142 85 ;
C 223 ; WX 208 ; N commainferior ; B 5 -102 147 85 ;
EndCharMetrics
StartKernData
StartKernPairs 17
KPX zerooldstyle twooldstyle -15
KPX zerooldstyle threeoldstyle -15
KPX oneoldstyle threeoldstyle -15
KPX oneoldstyle fouroldstyle -15
KPX fouroldstyle nineoldstyle 10
KPX fiveoldstyle comma -45
KPX fiveoldstyle period -50
KPX fiveoldstyle oneoldstyle -30
KPX fiveoldstyle twooldstyle -10
KPX fiveoldstyle sevenoldstyle -10
KPX sixoldstyle threeoldstyle -10
KPX sevenoldstyle comma -45
KPX sevenoldstyle period -55
KPX sevenoldstyle fouroldstyle -15
KPX sevenoldstyle fiveoldstyle -10
KPX eightoldstyle threeoldstyle -20
KPX nineoldstyle fouroldstyle 20
EndKernPairs
EndKernData
EndFontMetrics
