StartFontMetrics 2.0
Comment Copyright (c) 1991 Adobe Systems Incorporated.  All Rights Reserved.
Comment Creation Date: Wed Jun  3 11:29:06 1992
Comment UniqueID 263427
Comment VMusage 16088 21265
FontName BemboExpert-Bold
FullName Bembo Expert Bold
FamilyName Bembo Expert
Weight Bold
ItalicAngle 0
IsFixedPitch false
FontBBox -154 -227 1171 770 
UnderlinePosition -100
UnderlineThickness 50
Version 001.003
Notice Copyright (c) 1991 Adobe Systems Incorporated.  All Rights Reserved.Bembo Expert is a registered trademark of The Monotype Corporation plc.
EncodingScheme FontSpecific
StartCharMetrics 86
C 32 ; WX 235 ; N space ; B 180 0 180 0 ;
C 36 ; WX 312 ; N dollaroldstyle ; B 22 -57 290 350 ;
C 37 ; WX 312 ; N dollarsuperior ; B 28 259 284 654 ;
C 40 ; WX 229 ; N parenleftsuperior ; B 37 188 221 695 ;
C 41 ; WX 229 ; N parenrightsuperior ; B -1 188 183 695 ;
C 42 ; WX 500 ; N twodotenleader ; B 45 -11 455 124 ;
C 43 ; WX 500 ; N onedotenleader ; B 170 -11 330 124 ;
C 44 ; WX 312 ; N comma ; B 64 -146 249 124 ;
C 45 ; WX 417 ; N hyphen ; B 35 153 381 251 ;
C 46 ; WX 312 ; N period ; B 76 -11 237 124 ;
C 47 ; WX 208 ; N fraction ; B -154 -28 362 637 ;
C 48 ; WX 469 ; N zerooldstyle ; B 26 -12 443 474 ;
C 49 ; WX 469 ; N oneoldstyle ; B 76 0 393 459 ;
C 50 ; WX 469 ; N twooldstyle ; B 25 0 439 472 ;
C 51 ; WX 469 ; N threeoldstyle ; B 37 -164 407 474 ;
C 52 ; WX 469 ; N fouroldstyle ; B 20 -164 443 474 ;
C 53 ; WX 469 ; N fiveoldstyle ; B 31 -164 414 462 ;
C 54 ; WX 469 ; N sixoldstyle ; B 27 -12 442 625 ;
C 55 ; WX 469 ; N sevenoldstyle ; B 31 -164 450 462 ;
C 56 ; WX 469 ; N eightoldstyle ; B 32 -12 437 625 ;
C 57 ; WX 469 ; N nineoldstyle ; B 25 -164 440 472 ;
C 58 ; WX 312 ; N colon ; B 76 -11 237 419 ;
C 59 ; WX 312 ; N semicolon ; B 64 -146 249 419 ;
C 60 ; WX 198 ; N commasuperior ; B 33 217 165 385 ;
C 61 ; WX 750 ; N threequartersemdash ; B -5 205 755 295 ;
C 62 ; WX 198 ; N periodsuperior ; B 41 298 157 385 ;
C 65 ; WX 312 ; N asuperior ; B 24 299 300 558 ;
C 66 ; WX 365 ; N bsuperior ; B 6 299 338 708 ;
C 67 ; WX 312 ; N centsuperior ; B 28 221 285 585 ;
C 68 ; WX 365 ; N dsuperior ; B 23 299 359 708 ;
C 69 ; WX 312 ; N esuperior ; B 28 299 292 558 ;
C 73 ; WX 187 ; N isuperior ; B 8 306 171 701 ;
C 76 ; WX 167 ; N lsuperior ; B -1 306 161 708 ;
C 77 ; WX 604 ; N msuperior ; B 12 306 589 564 ;
C 78 ; WX 365 ; N nsuperior ; B 6 306 355 564 ;
C 79 ; WX 375 ; N osuperior ; B 29 299 346 558 ;
C 82 ; WX 260 ; N rsuperior ; B 16 306 258 565 ;
C 83 ; WX 240 ; N ssuperior ; B 25 299 218 558 ;
C 84 ; WX 219 ; N tsuperior ; B 13 299 216 626 ;
C 86 ; WX 615 ; N ff ; B 7 0 766 672 ;
C 87 ; WX 583 ; N fi ; B 20 0 553 672 ;
C 88 ; WX 583 ; N fl ; B 20 0 552 669 ;
C 89 ; WX 937 ; N ffi ; B 20 0 911 672 ;
C 90 ; WX 937 ; N ffl ; B 20 0 911 672 ;
C 91 ; WX 229 ; N parenleftinferior ; B 37 -92 221 415 ;
C 93 ; WX 229 ; N parenrightinferior ; B -1 -92 183 415 ;
C 95 ; WX 271 ; N hyphensuperior ; B 18 409 253 476 ;
C 123 ; WX 740 ; N colonmonetary ; B 51 -93 702 770 ;
C 124 ; WX 437 ; N onefitted ; B 39 0 393 637 ;
C 125 ; WX 1198 ; N rupiah ; B 0 -227 1171 637 ;
C 162 ; WX 312 ; N centoldstyle ; B 22 -95 294 282 ;
C 178 ; WX 500 ; N figuredash ; B -6 205 506 295 ;
C 179 ; WX 271 ; N hypheninferior ; B 18 90 253 157 ;
C 188 ; WX 823 ; N onequarter ; B 61 -28 768 637 ;
C 189 ; WX 823 ; N onehalf ; B 61 -28 770 637 ;
C 190 ; WX 823 ; N threequarters ; B 56 -28 768 637 ;
C 192 ; WX 823 ; N oneeighth ; B 61 -28 775 637 ;
C 193 ; WX 823 ; N threeeighths ; B 56 -28 784 637 ;
C 194 ; WX 823 ; N fiveeighths ; B 56 -28 774 638 ;
C 195 ; WX 823 ; N seveneighths ; B 81 -28 774 637 ;
C 196 ; WX 823 ; N onethird ; B 61 -28 767 637 ;
C 197 ; WX 823 ; N twothirds ; B 29 -28 767 637 ;
C 200 ; WX 312 ; N zerosuperior ; B 28 298 284 637 ;
C 201 ; WX 312 ; N onesuperior ; B 44 306 266 637 ;
C 202 ; WX 312 ; N twosuperior ; B 22 306 276 637 ;
C 203 ; WX 312 ; N threesuperior ; B 19 298 262 637 ;
C 204 ; WX 312 ; N foursuperior ; B 22 300 284 637 ;
C 205 ; WX 312 ; N fivesuperior ; B 29 298 268 638 ;
C 206 ; WX 312 ; N sixsuperior ; B 31 298 288 637 ;
C 207 ; WX 312 ; N sevensuperior ; B 24 298 283 629 ;
C 208 ; WX 312 ; N eightsuperior ; B 30 298 282 637 ;
C 209 ; WX 312 ; N ninesuperior ; B 26 298 283 637 ;
C 210 ; WX 312 ; N zeroinferior ; B 28 -8 284 331 ;
C 211 ; WX 312 ; N oneinferior ; B 44 0 266 331 ;
C 212 ; WX 312 ; N twoinferior ; B 22 0 276 331 ;
C 213 ; WX 312 ; N threeinferior ; B 19 -8 262 331 ;
C 214 ; WX 312 ; N fourinferior ; B 22 -8 284 331 ;
C 215 ; WX 312 ; N fiveinferior ; B 29 -8 268 332 ;
C 216 ; WX 312 ; N sixinferior ; B 31 -8 288 331 ;
C 217 ; WX 312 ; N seveninferior ; B 24 -8 283 323 ;
C 218 ; WX 312 ; N eightinferior ; B 30 -8 282 331 ;
C 219 ; WX 312 ; N nineinferior ; B 26 -9 284 331 ;
C 220 ; WX 312 ; N centinferior ; B 28 -80 285 284 ;
C 221 ; WX 312 ; N dollarinferior ; B 16 -43 272 352 ;
C 222 ; WX 198 ; N periodinferior ; B 41 -8 157 79 ;
C 223 ; WX 198 ; N commainferior ; B 33 -89 165 79 ;
EndCharMetrics
StartKernData
StartKernPairs 16
KPX zerooldstyle sevenoldstyle 10
KPX twooldstyle fouroldstyle 20
KPX twooldstyle fiveoldstyle 10
KPX fouroldstyle twooldstyle 10
KPX fouroldstyle fouroldstyle 15
KPX fouroldstyle nineoldstyle 10
KPX fiveoldstyle comma -20
KPX fiveoldstyle period -30
KPX fiveoldstyle sevenoldstyle -10
KPX sixoldstyle twooldstyle 10
KPX sixoldstyle threeoldstyle -10
KPX sixoldstyle nineoldstyle 10
KPX sevenoldstyle comma -40
KPX sevenoldstyle period -60
KPX sevenoldstyle eightoldstyle 10
KPX nineoldstyle period -15
EndKernPairs
EndKernData
EndFontMetrics
