StartFontMetrics 2.0
Comment Copyright (c) 1991 Adobe Systems Incorporated.  All Rights Reserved.
Comment Creation Date: Wed Jun  3 11:26:42 1992
Comment UniqueID 263426
Comment VMusage 17560 22737
FontName BemboExpert-Italic
FullName Bembo Expert Italic
FamilyName Bembo Expert
Weight Regular
ItalicAngle -12
IsFixedPitch false
FontBBox -178 -233 992 758 
UnderlinePosition -100
UnderlineThickness 50
Version 001.003
Notice Copyright (c) 1991 Adobe Systems Incorporated.  All Rights Reserved.Bembo Expert is a registered trademark of The Monotype Corporation plc.
EncodingScheme FontSpecific
StartCharMetrics 86
C 32 ; WX 278 ; N space ; B 180 0 180 0 ;
C 36 ; WX 312 ; N dollaroldstyle ; B 40 -53 287 337 ;
C 37 ; WX 312 ; N dollarsuperior ; B 121 261 356 640 ;
C 40 ; WX 177 ; N parenleftsuperior ; B 94 161 298 717 ;
C 41 ; WX 177 ; N parenrightsuperior ; B 1 161 205 717 ;
C 42 ; WX 500 ; N twodotenleader ; B 82 -12 418 91 ;
C 43 ; WX 500 ; N onedotenleader ; B 207 -12 293 91 ;
C 44 ; WX 292 ; N comma ; B 71 -173 222 91 ;
C 45 ; WX 333 ; N hyphen ; B 62 167 300 229 ;
C 46 ; WX 292 ; N period ; B 132 -12 218 91 ;
C 47 ; WX 188 ; N fraction ; B -178 -27 487 654 ;
C 48 ; WX 417 ; N zerooldstyle ; B 41 -12 376 433 ;
C 49 ; WX 417 ; N oneoldstyle ; B 57 0 293 433 ;
C 50 ; WX 417 ; N twooldstyle ; B 17 0 378 433 ;
C 51 ; WX 417 ; N threeoldstyle ; B -30 -202 378 402 ;
C 52 ; WX 417 ; N fouroldstyle ; B 22 -195 373 402 ;
C 53 ; WX 417 ; N fiveoldstyle ; B -10 -163 355 445 ;
C 54 ; WX 417 ; N sixoldstyle ; B 48 -12 437 636 ;
C 55 ; WX 417 ; N sevenoldstyle ; B 46 -164 408 421 ;
C 56 ; WX 417 ; N eightoldstyle ; B 39 -12 419 584 ;
C 57 ; WX 417 ; N nineoldstyle ; B -6 -201 376 433 ;
C 58 ; WX 292 ; N colon ; B 115 -12 264 408 ;
C 59 ; WX 292 ; N semicolon ; B 57 -173 264 408 ;
C 60 ; WX 188 ; N commasuperior ; B 67 198 177 366 ;
C 61 ; WX 750 ; N threequartersemdash ; B -5 227 755 273 ;
C 62 ; WX 188 ; N periodsuperior ; B 106 298 173 366 ;
C 65 ; WX 260 ; N asuperior ; B 69 298 293 549 ;
C 66 ; WX 260 ; N bsuperior ; B 83 298 295 707 ;
C 67 ; WX 198 ; N centsuperior ; B 85 220 258 584 ;
C 68 ; WX 271 ; N dsuperior ; B 81 298 336 707 ;
C 69 ; WX 219 ; N esuperior ; B 76 298 271 549 ;
C 73 ; WX 156 ; N isuperior ; B 82 298 203 678 ;
C 76 ; WX 146 ; N lsuperior ; B 86 298 205 709 ;
C 77 ; WX 437 ; N msuperior ; B 81 296 472 549 ;
C 78 ; WX 292 ; N nsuperior ; B 81 298 346 549 ;
C 79 ; WX 260 ; N osuperior ; B 81 298 292 549 ;
C 82 ; WX 167 ; N rsuperior ; B 78 298 257 549 ;
C 83 ; WX 198 ; N ssuperior ; B 55 298 237 549 ;
C 84 ; WX 167 ; N tsuperior ; B 91 298 228 620 ;
C 86 ; WX 490 ; N ff ; B -178 -233 685 673 ;
C 87 ; WX 479 ; N fi ; B -177 -233 479 673 ;
C 88 ; WX 479 ; N fl ; B -177 -233 492 673 ;
C 89 ; WX 719 ; N ffi ; B -171 -233 705 673 ;
C 90 ; WX 719 ; N ffl ; B -168 -233 732 674 ;
C 91 ; WX 177 ; N parenleftinferior ; B 60 -117 264 439 ;
C 93 ; WX 177 ; N parenrightinferior ; B -39 -117 165 439 ;
C 95 ; WX 208 ; N hyphensuperior ; B 77 405 245 449 ;
C 123 ; WX 729 ; N colonmonetary ; B 108 -87 764 758 ;
C 124 ; WX 365 ; N onefitted ; B 99 0 382 637 ;
C 125 ; WX 979 ; N rupiah ; B -8 -233 992 621 ;
C 162 ; WX 198 ; N centoldstyle ; B 19 -96 203 280 ;
C 178 ; WX 490 ; N figuredash ; B -11 227 501 273 ;
C 179 ; WX 188 ; N hypheninferior ; B 39 99 207 143 ;
C 188 ; WX 823 ; N onequarter ; B 157 -27 822 654 ;
C 189 ; WX 823 ; N onehalf ; B 157 -27 822 654 ;
C 190 ; WX 823 ; N threequarters ; B 120 -27 822 654 ;
C 192 ; WX 823 ; N oneeighth ; B 157 -27 822 654 ;
C 193 ; WX 823 ; N threeeighths ; B 120 -27 822 654 ;
C 194 ; WX 823 ; N fiveeighths ; B 125 -27 822 654 ;
C 195 ; WX 823 ; N seveneighths ; B 157 -27 822 654 ;
C 196 ; WX 823 ; N onethird ; B 157 -27 822 654 ;
C 197 ; WX 823 ; N twothirds ; B 95 -27 822 654 ;
C 200 ; WX 312 ; N zerosuperior ; B 112 298 376 637 ;
C 201 ; WX 312 ; N onesuperior ; B 140 306 320 637 ;
C 202 ; WX 312 ; N twosuperior ; B 85 306 363 637 ;
C 203 ; WX 312 ; N threesuperior ; B 87 298 344 637 ;
C 204 ; WX 312 ; N foursuperior ; B 105 298 360 637 ;
C 205 ; WX 312 ; N fivesuperior ; B 92 298 373 638 ;
C 206 ; WX 312 ; N sixsuperior ; B 118 298 390 637 ;
C 207 ; WX 312 ; N sevensuperior ; B 127 298 374 629 ;
C 208 ; WX 312 ; N eightsuperior ; B 107 298 364 637 ;
C 209 ; WX 312 ; N ninesuperior ; B 91 298 369 637 ;
C 210 ; WX 312 ; N zeroinferior ; B 29 -8 293 331 ;
C 211 ; WX 312 ; N oneinferior ; B 63 0 243 331 ;
C 212 ; WX 312 ; N twoinferior ; B 2 0 280 331 ;
C 213 ; WX 312 ; N threeinferior ; B 4 -8 261 331 ;
C 214 ; WX 312 ; N fourinferior ; B 28 -8 283 331 ;
C 215 ; WX 312 ; N fiveinferior ; B 14 -8 295 332 ;
C 216 ; WX 312 ; N sixinferior ; B 41 -8 313 331 ;
C 217 ; WX 312 ; N seveninferior ; B 50 -8 297 323 ;
C 218 ; WX 312 ; N eightinferior ; B 30 -8 287 331 ;
C 219 ; WX 312 ; N nineinferior ; B 14 -8 292 331 ;
C 220 ; WX 198 ; N centinferior ; B 24 -86 197 278 ;
C 221 ; WX 312 ; N dollarinferior ; B 71 -47 306 332 ;
C 222 ; WX 208 ; N periodinferior ; B 71 -8 138 60 ;
C 223 ; WX 188 ; N commainferior ; B 22 -108 132 60 ;
EndCharMetrics
StartKernData
StartKernPairs 23
KPX zerooldstyle threeoldstyle -30
KPX zerooldstyle fouroldstyle -20
KPX oneoldstyle threeoldstyle -45
KPX oneoldstyle fouroldstyle -25
KPX twooldstyle oneoldstyle 10
KPX twooldstyle nineoldstyle 15
KPX fouroldstyle twooldstyle 10
KPX fouroldstyle fouroldstyle 10
KPX fouroldstyle nineoldstyle 20
KPX fiveoldstyle comma -75
KPX fiveoldstyle period -70
KPX sixoldstyle threeoldstyle -25
KPX sixoldstyle nineoldstyle 10
KPX sevenoldstyle comma -90
KPX sevenoldstyle period -90
KPX sevenoldstyle threeoldstyle -35
KPX sevenoldstyle fouroldstyle -20
KPX sevenoldstyle sixoldstyle 10
KPX eightoldstyle threeoldstyle -25
KPX nineoldstyle comma -45
KPX nineoldstyle period -55
KPX nineoldstyle threeoldstyle 10
KPX nineoldstyle fouroldstyle 10
EndKernPairs
EndKernData
EndFontMetrics
