StartFontMetrics 2.0
Comment Copyright (c) 1990 Adobe Systems Incorporated. All Rights Reserved.
Comment Creation Date: Fri Nov 30 17:35:15 1990
Comment UniqueID 33280
Comment VMusage 31228 38120
FontName Bembo-SemiboldItalic
FullName Bembo Semibold Italic
FamilyName Bembo
Weight Semibold
ItalicAngle -11.5
IsFixedPitch false
FontBBox -200 -232 1140 864
UnderlinePosition -100
UnderlineThickness 50
Version 001.000
Notice Copyright (c) 1990 Adobe Systems Incorporated. All Rights Reserved.Monotype Bembo is a trademark of The Monotype Corporation plc.
EncodingScheme AdobeStandardEncoding
CapHeight 622
XHeight 413
Ascender 671
Descender -232
StartCharMetrics 228
C 32 ; WX 333 ; N space ; B 0 0 0 0 ;
C 33 ; WX 279 ; N exclam ; B 67 -11 300 634 ;
C 34 ; WX 555 ; N quotedbl ; B 198 374 482 638 ;
C 35 ; WX 668 ; N numbersign ; B 78 -27 662 671 ;
C 36 ; WX 424 ; N dollar ; B 49 -81 451 646 ;
C 37 ; WX 766 ; N percent ; B 67 -40 779 638 ;
C 38 ; WX 739 ; N ampersand ; B 72 -16 756 638 ;
C 39 ; WX 279 ; N quoteright ; B 126 389 301 671 ;
C 40 ; WX 333 ; N parenleft ; B 90 -219 417 657 ;
C 41 ; WX 333 ; N parenright ; B -44 -219 283 657 ;
C 42 ; WX 514 ; N asterisk ; B 114 220 551 671 ;
C 43 ; WX 667 ; N plus ; B 138 50 601 513 ;
C 44 ; WX 279 ; N comma ; B 19 -166 194 116 ;
C 45 ; WX 333 ; N hyphen ; B 53 163 317 241 ;
C 46 ; WX 279 ; N period ; B 68 -11 178 116 ;
C 47 ; WX 477 ; N slash ; B 90 -16 499 671 ;
C 48 ; WX 504 ; N zero ; B 78 -16 506 638 ;
C 49 ; WX 504 ; N one ; B 109 0 415 637 ;
C 50 ; WX 504 ; N two ; B 41 0 488 638 ;
C 51 ; WX 504 ; N three ; B 50 -16 463 638 ;
C 52 ; WX 504 ; N four ; B 75 -16 480 638 ;
C 53 ; WX 504 ; N five ; B 30 -16 492 638 ;
C 54 ; WX 504 ; N six ; B 87 -16 531 638 ;
C 55 ; WX 504 ; N seven ; B 132 -16 536 622 ;
C 56 ; WX 504 ; N eight ; B 82 -16 498 638 ;
C 57 ; WX 504 ; N nine ; B 53 -16 497 638 ;
C 58 ; WX 279 ; N colon ; B 68 -11 241 413 ;
C 59 ; WX 279 ; N semicolon ; B 19 -166 241 413 ;
C 60 ; WX 667 ; N less ; B 139 58 601 506 ;
C 61 ; WX 667 ; N equal ; B 138 150 601 416 ;
C 62 ; WX 667 ; N greater ; B 139 58 601 506 ;
C 63 ; WX 324 ; N question ; B 50 -11 360 634 ;
C 64 ; WX 832 ; N at ; B 87 -205 828 575 ;
C 65 ; WX 721 ; N A ; B 5 0 700 638 ;
C 66 ; WX 622 ; N B ; B 17 0 621 622 ;
C 67 ; WX 748 ; N C ; B 89 -16 776 638 ;
C 68 ; WX 784 ; N D ; B 15 0 773 622 ;
C 69 ; WX 622 ; N E ; B 10 0 651 622 ;
C 70 ; WX 580 ; N F ; B 15 0 615 622 ;
C 71 ; WX 784 ; N G ; B 89 -16 788 638 ;
C 72 ; WX 784 ; N H ; B 8 0 866 622 ;
C 73 ; WX 343 ; N I ; B 17 0 410 622 ;
C 74 ; WX 343 ; N J ; B -190 -232 403 622 ;
C 75 ; WX 711 ; N K ; B 13 0 798 622 ;
C 76 ; WX 585 ; N L ; B 8 0 607 622 ;
C 77 ; WX 874 ; N M ; B 11 0 949 622 ;
C 78 ; WX 775 ; N N ; B 24 0 849 622 ;
C 79 ; WX 802 ; N O ; B 89 -16 792 638 ;
C 80 ; WX 595 ; N P ; B 12 0 621 622 ;
C 81 ; WX 802 ; N Q ; B 89 -174 792 638 ;
C 82 ; WX 721 ; N R ; B 16 -6 721 622 ;
C 83 ; WX 558 ; N S ; B 52 -16 560 638 ;
C 84 ; WX 711 ; N T ; B 119 0 777 649 ;
C 85 ; WX 748 ; N U ; B 112 -16 821 622 ;
C 86 ; WX 721 ; N V ; B 152 -16 831 622 ;
C 87 ; WX 1036 ; N W ; B 138 -16 1140 622 ;
C 88 ; WX 739 ; N X ; B 4 0 782 622 ;
C 89 ; WX 684 ; N Y ; B 108 0 758 622 ;
C 90 ; WX 703 ; N Z ; B 31 0 716 622 ;
C 91 ; WX 333 ; N bracketleft ; B 46 -210 432 655 ;
C 92 ; WX 477 ; N backslash ; B 78 -16 487 671 ;
C 93 ; WX 333 ; N bracketright ; B -67 -210 319 655 ;
C 94 ; WX 570 ; N asciicircum ; B 141 319 523 622 ;
C 95 ; WX 500 ; N underscore ; B -6 -125 506 -75 ;
C 96 ; WX 279 ; N quoteleft ; B 136 389 311 671 ;
C 97 ; WX 442 ; N a ; B 56 -11 431 413 ;
C 98 ; WX 415 ; N b ; B 58 -11 403 671 ;
C 99 ; WX 316 ; N c ; B 18 -11 322 413 ;
C 100 ; WX 442 ; N d ; B 45 -11 460 671 ;
C 101 ; WX 360 ; N e ; B 48 -11 380 413 ;
C 102 ; WX 268 ; N f ; B -175 -232 456 671 ; L i fi ; L l fl ;
C 103 ; WX 397 ; N g ; B -72 -232 415 413 ;
C 104 ; WX 477 ; N h ; B 45 -11 473 671 ;
C 105 ; WX 252 ; N i ; B 45 -11 261 631 ;
C 106 ; WX 235 ; N j ; B -148 -232 269 631 ;
C 107 ; WX 477 ; N k ; B 48 -12 471 671 ;
C 108 ; WX 252 ; N l ; B 50 -11 249 671 ;
C 109 ; WX 711 ; N m ; B 57 -11 686 413 ;
C 110 ; WX 486 ; N n ; B 43 -11 485 413 ;
C 111 ; WX 415 ; N o ; B 44 -11 395 413 ;
C 112 ; WX 459 ; N p ; B -70 -232 442 413 ;
C 113 ; WX 423 ; N q ; B 36 -232 413 413 ;
C 114 ; WX 306 ; N r ; B 38 -11 359 413 ;
C 115 ; WX 351 ; N s ; B 13 -11 338 413 ;
C 116 ; WX 261 ; N t ; B 50 -11 285 535 ;
C 117 ; WX 486 ; N u ; B 52 -11 473 413 ;
C 118 ; WX 451 ; N v ; B 52 -11 449 413 ;
C 119 ; WX 640 ; N w ; B 38 -11 653 413 ;
C 120 ; WX 544 ; N x ; B 42 -11 540 413 ;
C 121 ; WX 451 ; N y ; B 4 -232 449 413 ;
C 122 ; WX 480 ; N z ; B 36 -11 485 413 ;
C 123 ; WX 394 ; N braceleft ; B 98 -232 370 664 ;
C 124 ; WX 527 ; N bar ; B 269 -160 336 671 ;
C 125 ; WX 394 ; N braceright ; B 77 -232 349 664 ;
C 126 ; WX 667 ; N asciitilde ; B 132 258 593 396 ;
C 161 ; WX 279 ; N exclamdown ; B 15 -232 248 413 ;
C 162 ; WX 316 ; N cent ; B -7 -232 364 622 ;
C 163 ; WX 721 ; N sterling ; B 10 -232 764 671 ;
C 164 ; WX 171 ; N fraction ; B -200 -40 434 638 ;
C 165 ; WX 684 ; N yen ; B 69 0 718 622 ;
C 166 ; WX 488 ; N florin ; B -71 -232 560 671 ;
C 167 ; WX 451 ; N section ; B -42 -219 532 634 ;
C 168 ; WX 667 ; N currency ; B 124 82 612 570 ;
C 169 ; WX 278 ; N quotesingle ; B 164 374 269 638 ;
C 170 ; WX 504 ; N quotedblleft ; B 137 389 531 671 ;
C 171 ; WX 424 ; N guillemotleft ; B 38 37 411 402 ;
C 172 ; WX 289 ; N guilsinglleft ; B 37 37 276 402 ;
C 173 ; WX 289 ; N guilsinglright ; B 64 37 303 402 ;
C 174 ; WX 504 ; N fi ; B -176 -232 504 671 ;
C 175 ; WX 504 ; N fl ; B -176 -232 508 671 ;
C 177 ; WX 500 ; N endash ; B 10 177 522 255 ;
C 178 ; WX 469 ; N dagger ; B 64 -216 504 631 ;
C 179 ; WX 477 ; N daggerdbl ; B 6 -214 515 631 ;
C 180 ; WX 289 ; N periodcentered ; B 116 253 249 367 ;
C 182 ; WX 540 ; N paragraph ; B 90 -232 551 622 ;
C 183 ; WX 350 ; N bullet ; B 106 168 347 409 ;
C 184 ; WX 279 ; N quotesinglbase ; B 19 -166 194 116 ;
C 185 ; WX 504 ; N quotedblbase ; B 38 -165 432 117 ;
C 186 ; WX 504 ; N quotedblright ; B 126 389 520 671 ;
C 187 ; WX 424 ; N guillemotright ; B 47 37 420 402 ;
C 188 ; WX 865 ; N ellipsis ; B 77 -11 788 102 ;
C 189 ; WX 1027 ; N perthousand ; B 76 -40 1045 638 ;
C 191 ; WX 324 ; N questiondown ; B 17 -232 327 413 ;
C 193 ; WX 333 ; N grave ; B 160 464 339 654 ;
C 194 ; WX 333 ; N acute ; B 197 464 376 654 ;
C 195 ; WX 333 ; N circumflex ; B 117 464 380 654 ;
C 196 ; WX 333 ; N tilde ; B 102 490 425 614 ;
C 197 ; WX 333 ; N macron ; B 141 513 381 593 ;
C 198 ; WX 333 ; N breve ; B 117 478 380 644 ;
C 199 ; WX 333 ; N dotaccent ; B 189 504 283 598 ;
C 200 ; WX 333 ; N dieresis ; B 136 504 407 598 ;
C 202 ; WX 333 ; N ring ; B 199 458 387 646 ;
C 203 ; WX 333 ; N cedilla ; B 51 -207 220 0 ;
C 205 ; WX 333 ; N hungarumlaut ; B 151 464 455 654 ;
C 206 ; WX 333 ; N ogonek ; B 44 -185 284 7 ;
C 207 ; WX 333 ; N caron ; B 175 464 438 654 ;
C 208 ; WX 1000 ; N emdash ; B 10 177 1022 255 ;
C 225 ; WX 928 ; N AE ; B -36 0 951 622 ;
C 227 ; WX 279 ; N ordfeminine ; B 93 382 343 638 ;
C 232 ; WX 585 ; N Lslash ; B 8 0 607 622 ;
C 233 ; WX 802 ; N Oslash ; B 79 -29 804 651 ;
C 234 ; WX 1018 ; N OE ; B 93 -6 1049 629 ;
C 235 ; WX 261 ; N ordmasculine ; B 96 382 332 638 ;
C 241 ; WX 603 ; N ae ; B 43 -11 624 413 ;
C 245 ; WX 252 ; N dotlessi ; B 45 -11 245 413 ;
C 248 ; WX 252 ; N lslash ; B 9 -11 299 671 ;
C 249 ; WX 415 ; N oslash ; B 13 -45 429 447 ;
C 250 ; WX 613 ; N oe ; B 39 -11 619 413 ;
C 251 ; WX 469 ; N germandbls ; B -189 -232 496 671 ;
C -1 ; WX 360 ; N ecircumflex ; B 48 -11 394 654 ;
C -1 ; WX 360 ; N edieresis ; B 48 -11 421 598 ;
C -1 ; WX 442 ; N aacute ; B 56 -11 431 654 ;
C -1 ; WX 747 ; N registered ; B 64 -16 756 674 ;
C -1 ; WX 252 ; N icircumflex ; B 45 -11 340 654 ;
C -1 ; WX 486 ; N udieresis ; B 52 -11 484 598 ;
C -1 ; WX 415 ; N ograve ; B 44 -11 395 654 ;
C -1 ; WX 486 ; N uacute ; B 52 -11 473 654 ;
C -1 ; WX 486 ; N ucircumflex ; B 52 -11 473 654 ;
C -1 ; WX 721 ; N Aacute ; B 5 0 700 864 ;
C -1 ; WX 252 ; N igrave ; B 45 -11 299 654 ;
C -1 ; WX 343 ; N Icircumflex ; B 17 0 410 864 ;
C -1 ; WX 316 ; N ccedilla ; B -4 -207 322 413 ;
C -1 ; WX 442 ; N adieresis ; B 56 -11 462 598 ;
C -1 ; WX 622 ; N Ecircumflex ; B 10 0 651 864 ;
C -1 ; WX 351 ; N scaron ; B 13 -11 447 654 ;
C -1 ; WX 459 ; N thorn ; B -70 -232 442 671 ;
C -1 ; WX 1000 ; N trademark ; B 70 277 1019 671 ;
C -1 ; WX 360 ; N egrave ; B 48 -11 380 654 ;
C -1 ; WX 297 ; N threesuperior ; B 80 298 334 638 ;
C -1 ; WX 480 ; N zcaron ; B 36 -11 512 654 ;
C -1 ; WX 442 ; N atilde ; B 56 -11 480 614 ;
C -1 ; WX 442 ; N aring ; B 56 -11 442 646 ;
C -1 ; WX 415 ; N ocircumflex ; B 44 -11 421 654 ;
C -1 ; WX 622 ; N Edieresis ; B 10 0 651 808 ;
C -1 ; WX 766 ; N threequarters ; B 78 -40 721 638 ;
C -1 ; WX 451 ; N ydieresis ; B 4 -232 466 598 ;
C -1 ; WX 451 ; N yacute ; B 4 -232 449 654 ;
C -1 ; WX 252 ; N iacute ; B 45 -11 336 654 ;
C -1 ; WX 721 ; N Acircumflex ; B 5 0 700 864 ;
C -1 ; WX 748 ; N Uacute ; B 112 -16 821 864 ;
C -1 ; WX 360 ; N eacute ; B 48 -11 390 654 ;
C -1 ; WX 802 ; N Ograve ; B 89 -16 792 864 ;
C -1 ; WX 442 ; N agrave ; B 56 -11 431 654 ;
C -1 ; WX 748 ; N Udieresis ; B 112 -16 821 808 ;
C -1 ; WX 442 ; N acircumflex ; B 56 -11 435 654 ;
C -1 ; WX 343 ; N Igrave ; B 17 0 410 864 ;
C -1 ; WX 297 ; N twosuperior ; B 63 306 338 638 ;
C -1 ; WX 748 ; N Ugrave ; B 112 -16 821 864 ;
C -1 ; WX 766 ; N onequarter ; B 77 -40 711 638 ;
C -1 ; WX 748 ; N Ucircumflex ; B 112 -16 821 864 ;
C -1 ; WX 558 ; N Scaron ; B 52 -16 560 864 ;
C -1 ; WX 343 ; N Idieresis ; B 17 0 419 808 ;
C -1 ; WX 252 ; N idieresis ; B 45 -11 367 598 ;
C -1 ; WX 622 ; N Egrave ; B 10 0 651 864 ;
C -1 ; WX 802 ; N Oacute ; B 89 -16 792 864 ;
C -1 ; WX 668 ; N divide ; B 139 67 602 496 ;
C -1 ; WX 721 ; N Atilde ; B 5 0 709 824 ;
C -1 ; WX 721 ; N Aring ; B 5 0 700 856 ;
C -1 ; WX 802 ; N Odieresis ; B 89 -16 792 808 ;
C -1 ; WX 721 ; N Adieresis ; B 5 0 700 808 ;
C -1 ; WX 775 ; N Ntilde ; B 24 0 849 824 ;
C -1 ; WX 703 ; N Zcaron ; B 31 0 716 864 ;
C -1 ; WX 595 ; N Thorn ; B 12 0 592 622 ;
C -1 ; WX 343 ; N Iacute ; B 17 0 410 864 ;
C -1 ; WX 667 ; N plusminus ; B 138 -21 601 585 ;
C -1 ; WX 668 ; N multiply ; B 161 65 589 493 ;
C -1 ; WX 622 ; N Eacute ; B 10 0 651 864 ;
C -1 ; WX 684 ; N Ydieresis ; B 108 0 758 808 ;
C -1 ; WX 297 ; N onesuperior ; B 107 306 299 638 ;
C -1 ; WX 486 ; N ugrave ; B 52 -11 473 654 ;
C -1 ; WX 667 ; N logicalnot ; B 138 150 601 416 ;
C -1 ; WX 486 ; N ntilde ; B 43 -11 502 614 ;
C -1 ; WX 802 ; N Otilde ; B 89 -16 792 824 ;
C -1 ; WX 415 ; N otilde ; B 44 -11 466 614 ;
C -1 ; WX 748 ; N Ccedilla ; B 89 -207 776 638 ;
C -1 ; WX 721 ; N Agrave ; B 5 0 700 864 ;
C -1 ; WX 766 ; N onehalf ; B 77 -40 723 638 ;
C -1 ; WX 784 ; N Eth ; B 15 0 773 622 ;
C -1 ; WX 400 ; N degree ; B 110 362 386 638 ;
C -1 ; WX 684 ; N Yacute ; B 108 0 758 864 ;
C -1 ; WX 802 ; N Ocircumflex ; B 89 -16 792 864 ;
C -1 ; WX 415 ; N oacute ; B 44 -11 417 654 ;
C -1 ; WX 500 ; N mu ; B -21 -207 484 413 ;
C -1 ; WX 667 ; N minus ; B 138 248 601 315 ;
C -1 ; WX 417 ; N eth ; B 36 -11 476 654 ;
C -1 ; WX 415 ; N odieresis ; B 44 -11 448 598 ;
C -1 ; WX 747 ; N copyright ; B 66 -16 758 674 ;
C -1 ; WX 527 ; N brokenbar ; B 277 -160 344 671 ;
EndCharMetrics
StartKernData
StartKernPairs 237

KPX A y -35
KPX A v -20
KPX A u -20
KPX A Y -70
KPX A W -80
KPX A V -90
KPX A U -60
KPX A T -90
KPX A Q -65
KPX A O -65
KPX A G -65
KPX A C -65

KPX B period -20
KPX B comma -20
KPX B U -10
KPX B A 20

KPX C period -15
KPX C comma -15

KPX D period -60
KPX D comma -60
KPX D Y -100
KPX D W -85
KPX D V -100
KPX D A -45

KPX F period -160
KPX F o -25
KPX F e -25
KPX F comma -160
KPX F a -55
KPX F A -80

KPX J u -20
KPX J period -80
KPX J o -35
KPX J e -35
KPX J comma -80
KPX J a -40
KPX J A -20

KPX K y -50
KPX K O -50

KPX L y -30
KPX L quoteright -75
KPX L quotedblright -75
KPX L Y -80
KPX L W -60
KPX L V -80
KPX L T -80

KPX N period -60
KPX N comma -60

KPX O period -55
KPX O comma -55
KPX O Y -100
KPX O X -70
KPX O W -80
KPX O V -75
KPX O T -80
KPX O A -30

KPX P period -200
KPX P o -25
KPX P e -25
KPX P comma -200
KPX P a -55
KPX P A -100

KPX Q period -60
KPX Q U -15

KPX R Y -100
KPX R W -100
KPX R V -100
KPX R U -70
KPX R T -80
KPX R O -70

KPX S period -15
KPX S comma -15

KPX T y -140
KPX T w -130
KPX T u -130
KPX T semicolon -40
KPX T r -120
KPX T period -140
KPX T o -130
KPX T hyphen -150
KPX T e -130
KPX T comma -140
KPX T colon -40
KPX T a -140
KPX T O -45
KPX T A -110

KPX U period -65
KPX U comma -65
KPX U A -50

KPX V u -100
KPX V semicolon -75
KPX V period -250
KPX V o -115
KPX V hyphen -125
KPX V e -115
KPX V comma -250
KPX V colon -75
KPX V a -160
KPX V O -40
KPX V G -40
KPX V A -140

KPX W y -100
KPX W u -80
KPX W semicolon -60
KPX W period -240
KPX W o -150
KPX W hyphen -130
KPX W e -150
KPX W comma -240
KPX W colon -60
KPX W a -160
KPX W O -45
KPX W A -150

KPX Y u -100
KPX Y semicolon -80
KPX Y period -120
KPX Y o -130
KPX Y hyphen -125
KPX Y e -130
KPX Y comma -120
KPX Y colon -80
KPX Y a -130
KPX Y S -20
KPX Y O -40
KPX Y A -90

KPX a y -30
KPX a v -20
KPX a t -10
KPX a p -15
KPX a g -15

KPX b y -25
KPX b v -25
KPX b u -15
KPX b period -70
KPX b l -20
KPX b comma -70
KPX b b -15

KPX c l 10

KPX colon space -100

KPX comma space -100
KPX comma quoteright -125
KPX comma quotedblright -125

KPX d y -15
KPX d w -15
KPX d v -15
KPX d d -15

KPX e y 10
KPX e w 15

KPX f quoteright 75
KPX f quotedblright 75
KPX f period -45
KPX f e -15
KPX f comma -45
KPX f a -20

KPX g y -20
KPX g period -80
KPX g e -15
KPX g comma -40
KPX g a -20

KPX h y -25

KPX i v -10

KPX k y -20

KPX l y -25
KPX l w -10

KPX m y -25
KPX m u -15

KPX n y -25
KPX n v -20

KPX o y -15
KPX o x -30
KPX o w -15
KPX o v -25
KPX o period -55
KPX o g -15
KPX o comma -55

KPX p y -20
KPX p period -65
KPX p comma -65

KPX period space -100
KPX period quoteright -125

KPX quotedblright space -100

KPX quoteleft quoteleft -70

KPX quoteright v -80
KPX quoteright t -50
KPX quoteright space -100
KPX quoteright s -100
KPX quoteright r -75
KPX quoteright quoteright -70
KPX quoteright l 20
KPX quoteright d -100

KPX r y 25
KPX r v 25
KPX r u 20
KPX r t 30
KPX r r 35
KPX r q -20
KPX r period -100
KPX r p 25
KPX r n 25
KPX r m 25
KPX r l 20
KPX r k 15
KPX r i 25
KPX r d 10
KPX r comma -100
KPX r c 15
KPX r a -20

KPX s w -15
KPX s period -45
KPX s comma -45

KPX semicolon space -100

KPX space quoteleft -100
KPX space quotedblleft -100
KPX space Y -200
KPX space W -150
KPX space V -150
KPX space T -150
KPX space A -90

KPX v period -100
KPX v o -5
KPX v e -15
KPX v comma -100
KPX v a -35

KPX w period -110
KPX w o -15
KPX w h -10
KPX w e -15
KPX w comma -110
KPX w a -30

KPX x e -20

KPX y period -120
KPX y o -35
KPX y e -35
KPX y comma -120
KPX y a -55

KPX z o -20
KPX z e -20
EndKernPairs
EndKernData
StartComposites 56
CC Aacute 2 ; PCC A 0 0 ; PCC acute 278 210 ;
CC Acircumflex 2 ; PCC A 0 0 ; PCC circumflex 284 210 ;
CC Adieresis 2 ; PCC A 0 0 ; PCC dieresis 278 210 ;
CC Agrave 2 ; PCC A 0 0 ; PCC grave 284 210 ;
CC Aring 2 ; PCC A 0 0 ; PCC ring 278 210 ;
CC Atilde 2 ; PCC A 0 0 ; PCC tilde 284 210 ;
CC Eacute 2 ; PCC E 0 0 ; PCC acute 152 210 ;
CC Ecircumflex 2 ; PCC E 0 0 ; PCC circumflex 152 210 ;
CC Edieresis 2 ; PCC E 0 0 ; PCC dieresis 152 210 ;
CC Egrave 2 ; PCC E 0 0 ; PCC grave 152 210 ;
CC Iacute 2 ; PCC I 0 0 ; PCC acute 12 210 ;
CC Icircumflex 2 ; PCC I 0 0 ; PCC circumflex 12 210 ;
CC Idieresis 2 ; PCC I 0 0 ; PCC dieresis 12 210 ;
CC Igrave 2 ; PCC I 0 0 ; PCC grave 18 210 ;
CC Ntilde 2 ; PCC N 0 0 ; PCC tilde 228 210 ;
CC Oacute 2 ; PCC O 0 0 ; PCC acute 242 210 ;
CC Ocircumflex 2 ; PCC O 0 0 ; PCC circumflex 242 210 ;
CC Odieresis 2 ; PCC O 0 0 ; PCC dieresis 242 210 ;
CC Ograve 2 ; PCC O 0 0 ; PCC grave 248 210 ;
CC Otilde 2 ; PCC O 0 0 ; PCC tilde 242 210 ;
CC Scaron 2 ; PCC S 0 0 ; PCC caron 120 210 ;
CC Uacute 2 ; PCC U 0 0 ; PCC acute 215 210 ;
CC Ucircumflex 2 ; PCC U 0 0 ; PCC circumflex 215 210 ;
CC Udieresis 2 ; PCC U 0 0 ; PCC dieresis 215 210 ;
CC Ugrave 2 ; PCC U 0 0 ; PCC grave 215 210 ;
CC Yacute 2 ; PCC Y 0 0 ; PCC acute 183 210 ;
CC Ydieresis 2 ; PCC Y 0 0 ; PCC dieresis 183 210 ;
CC Zcaron 2 ; PCC Z 0 0 ; PCC caron 192 210 ;
CC aacute 2 ; PCC a 0 0 ; PCC acute 55 0 ;
CC acircumflex 2 ; PCC a 0 0 ; PCC circumflex 55 0 ;
CC adieresis 2 ; PCC a 0 0 ; PCC dieresis 55 0 ;
CC agrave 2 ; PCC a 0 0 ; PCC grave 55 0 ;
CC aring 2 ; PCC a 0 0 ; PCC ring 55 0 ;
CC atilde 2 ; PCC a 0 0 ; PCC tilde 55 0 ;
CC eacute 2 ; PCC e 0 0 ; PCC acute 14 0 ;
CC ecircumflex 2 ; PCC e 0 0 ; PCC circumflex 14 0 ;
CC edieresis 2 ; PCC e 0 0 ; PCC dieresis 14 0 ;
CC egrave 2 ; PCC e 0 0 ; PCC grave 14 0 ;
CC iacute 2 ; PCC dotlessi 0 0 ; PCC acute -40 0 ;
CC icircumflex 2 ; PCC dotlessi 0 0 ; PCC circumflex -40 0 ;
CC idieresis 2 ; PCC dotlessi 0 0 ; PCC dieresis -40 0 ;
CC igrave 2 ; PCC dotlessi 0 0 ; PCC grave -40 0 ;
CC ntilde 2 ; PCC n 0 0 ; PCC tilde 77 0 ;
CC oacute 2 ; PCC o 0 0 ; PCC acute 41 0 ;
CC ocircumflex 2 ; PCC o 0 0 ; PCC circumflex 41 0 ;
CC odieresis 2 ; PCC o 0 0 ; PCC dieresis 41 0 ;
CC ograve 2 ; PCC o 0 0 ; PCC grave 41 0 ;
CC otilde 2 ; PCC o 0 0 ; PCC tilde 41 0 ;
CC scaron 2 ; PCC s 0 0 ; PCC caron 9 0 ;
CC uacute 2 ; PCC u 0 0 ; PCC acute 77 0 ;
CC ucircumflex 2 ; PCC u 0 0 ; PCC circumflex 77 0 ;
CC udieresis 2 ; PCC u 0 0 ; PCC dieresis 77 0 ;
CC ugrave 2 ; PCC u 0 0 ; PCC grave 77 0 ;
CC yacute 2 ; PCC y 0 0 ; PCC acute 59 0 ;
CC ydieresis 2 ; PCC y 0 0 ; PCC dieresis 59 0 ;
CC zcaron 2 ; PCC z 0 0 ; PCC caron 74 0 ;
EndComposites
EndFontMetrics
