StartFontMetrics 2.0
Comment Copyright (c) 1991 Adobe Systems Incorporated.  All Rights Reserved.
Comment Creation Date: Wed Jun  3 11:37:30 1992
Comment UniqueID 263650
Comment VMusage 26182 35314
FontName BemboExpert-SemiBold
FullName Bembo Expert Semi Bold
FamilyName Bembo Expert
Weight SemiBold
ItalicAngle 0
IsFixedPitch false
FontBBox -161 -232 1226 716 
UnderlinePosition -100
UnderlineThickness 50
Version 001.003
Notice Copyright (c) 1991 Adobe Systems Incorporated.  All Rights Reserved.Bembo Expert is a registered trademark of The Monotype Corporation plc.
EncodingScheme FontSpecific
StartCharMetrics 165
C 32 ; WX 333 ; N space ; B 182 0 182 0 ;
C 33 ; WX 198 ; N exclamsmall ; B 46 -8 152 459 ;
C 34 ; WX 333 ; N Hungarumlautsmall ; B 38 524 315 694 ;
C 36 ; WX 354 ; N dollaroldstyle ; B 20 -79 333 480 ;
C 37 ; WX 292 ; N dollarsuperior ; B 19 254 272 644 ;
C 38 ; WX 521 ; N ampersandsmall ; B 24 -11 511 411 ;
C 39 ; WX 333 ; N Acutesmall ; B 115 524 275 693 ;
C 40 ; WX 229 ; N parenleftsuperior ; B 44 179 228 700 ;
C 41 ; WX 229 ; N parenrightsuperior ; B 1 179 185 700 ;
C 42 ; WX 500 ; N twodotenleader ; B 59 -12 441 102 ;
C 43 ; WX 500 ; N onedotenleader ; B 184 -12 316 102 ;
C 44 ; WX 292 ; N comma ; B 69 -148 222 102 ;
C 45 ; WX 385 ; N hyphen ; B 26 159 359 242 ;
C 46 ; WX 292 ; N period ; B 79 -11 212 102 ;
C 47 ; WX 167 ; N fraction ; B -161 -39 336 638 ;
C 48 ; WX 490 ; N zerooldstyle ; B 37 -11 453 436 ;
C 49 ; WX 490 ; N oneoldstyle ; B 105 0 385 422 ;
C 50 ; WX 490 ; N twooldstyle ; B 34 0 453 436 ;
C 51 ; WX 490 ; N threeoldstyle ; B 65 -168 409 436 ;
C 52 ; WX 490 ; N fouroldstyle ; B 35 -168 470 433 ;
C 53 ; WX 490 ; N fiveoldstyle ; B 72 -168 405 436 ;
C 54 ; WX 490 ; N sixoldstyle ; B 42 -10 450 593 ;
C 55 ; WX 490 ; N sevenoldstyle ; B 66 -168 462 422 ;
C 56 ; WX 490 ; N eightoldstyle ; B 67 -11 423 593 ;
C 57 ; WX 490 ; N nineoldstyle ; B 41 -168 449 436 ;
C 58 ; WX 292 ; N colon ; B 69 -11 202 413 ;
C 59 ; WX 292 ; N semicolon ; B 69 -148 222 413 ;
C 60 ; WX 177 ; N commasuperior ; B 34 219 143 373 ;
C 61 ; WX 750 ; N threequartersemdash ; B -6 177 756 255 ;
C 62 ; WX 177 ; N periodsuperior ; B 41 297 136 370 ;
C 63 ; WX 250 ; N questionsmall ; B 22 -8 228 447 ;
C 65 ; WX 281 ; N asuperior ; B 23 299 287 555 ;
C 66 ; WX 344 ; N bsuperior ; B 0 299 325 716 ;
C 67 ; WX 271 ; N centsuperior ; B 22 187 256 628 ;
C 68 ; WX 344 ; N dsuperior ; B 21 299 346 716 ;
C 69 ; WX 302 ; N esuperior ; B 21 299 284 555 ;
C 73 ; WX 167 ; N isuperior ; B -1 306 167 694 ;
C 76 ; WX 167 ; N lsuperior ; B -2 306 168 708 ;
C 77 ; WX 521 ; N msuperior ; B 3 306 520 555 ;
C 78 ; WX 354 ; N nsuperior ; B 7 306 354 561 ;
C 79 ; WX 344 ; N osuperior ; B 20 299 324 555 ;
C 82 ; WX 229 ; N rsuperior ; B 3 306 237 555 ;
C 83 ; WX 229 ; N ssuperior ; B 28 299 207 555 ;
C 84 ; WX 198 ; N tsuperior ; B 10 299 203 615 ;
C 86 ; WX 594 ; N ff ; B 22 0 734 671 ;
C 87 ; WX 594 ; N fi ; B 22 0 578 671 ;
C 88 ; WX 542 ; N fl ; B 22 0 539 671 ;
C 89 ; WX 854 ; N ffi ; B 25 0 819 671 ;
C 90 ; WX 854 ; N ffl ; B 25 0 831 671 ;
C 91 ; WX 229 ; N parenleftinferior ; B 44 -127 228 394 ;
C 93 ; WX 229 ; N parenrightinferior ; B 1 -127 185 394 ;
C 94 ; WX 333 ; N Circumflexsmall ; B 29 520 304 682 ;
C 95 ; WX 250 ; N hyphensuperior ; B 13 399 237 452 ;
C 96 ; WX 333 ; N Gravesmall ; B 58 524 218 693 ;
C 97 ; WX 500 ; N Asmall ; B 7 0 492 449 ;
C 98 ; WX 458 ; N Bsmall ; B 5 0 423 445 ;
C 99 ; WX 521 ; N Csmall ; B 35 -11 504 451 ;
C 100 ; WX 552 ; N Dsmall ; B 18 0 515 445 ;
C 101 ; WX 417 ; N Esmall ; B 13 0 408 440 ;
C 102 ; WX 396 ; N Fsmall ; B 28 0 368 440 ;
C 103 ; WX 521 ; N Gsmall ; B 35 -11 510 451 ;
C 104 ; WX 573 ; N Hsmall ; B 19 0 554 440 ;
C 105 ; WX 250 ; N Ismall ; B 23 0 229 440 ;
C 106 ; WX 260 ; N Jsmall ; B -71 -158 236 440 ;
C 107 ; WX 510 ; N Ksmall ; B 16 0 517 440 ;
C 108 ; WX 417 ; N Lsmall ; B 19 0 422 440 ;
C 109 ; WX 656 ; N Msmall ; B 17 0 639 440 ;
C 110 ; WX 583 ; N Nsmall ; B 26 -4 565 440 ;
C 111 ; WX 594 ; N Osmall ; B 41 -11 553 451 ;
C 112 ; WX 396 ; N Psmall ; B 11 0 386 445 ;
C 113 ; WX 594 ; N Qsmall ; B 41 -152 572 451 ;
C 114 ; WX 463 ; N Rsmall ; B 4 -7 454 445 ;
C 115 ; WX 375 ; N Ssmall ; B 34 -11 340 451 ;
C 116 ; WX 490 ; N Tsmall ; B 17 0 473 451 ;
C 117 ; WX 563 ; N Usmall ; B 14 -11 554 440 ;
C 118 ; WX 521 ; N Vsmall ; B 13 -11 507 440 ;
C 119 ; WX 781 ; N Wsmall ; B 14 -11 769 440 ;
C 120 ; WX 563 ; N Xsmall ; B 20 0 552 440 ;
C 121 ; WX 521 ; N Ysmall ; B 11 0 512 440 ;
C 122 ; WX 479 ; N Zsmall ; B 20 0 460 440 ;
C 123 ; WX 740 ; N colonmonetary ; B 50 -150 710 712 ;
C 124 ; WX 427 ; N onefitted ; B 52 0 377 639 ;
C 125 ; WX 1271 ; N rupiah ; B 22 -232 1226 630 ;
C 126 ; WX 333 ; N Tildesmall ; B 11 516 323 644 ;
C 161 ; WX 198 ; N exclamdownsmall ; B 46 -20 152 447 ;
C 162 ; WX 333 ; N centoldstyle ; B 25 -178 318 464 ;
C 163 ; WX 417 ; N Lslashsmall ; B 19 0 422 440 ;
C 166 ; WX 375 ; N Scaronsmall ; B 34 -11 340 691 ;
C 167 ; WX 479 ; N Zcaronsmall ; B 20 0 460 691 ;
C 168 ; WX 333 ; N Dieresissmall ; B 27 529 306 635 ;
C 169 ; WX 333 ; N Brevesmall ; B 27 529 306 666 ;
C 170 ; WX 333 ; N Caronsmall ; B 29 529 304 691 ;
C 172 ; WX 333 ; N Dotaccentsmall ; B 113 529 219 635 ;
C 175 ; WX 333 ; N Macronsmall ; B 11 547 322 610 ;
C 178 ; WX 510 ; N figuredash ; B -6 177 516 255 ;
C 179 ; WX 250 ; N hypheninferior ; B 13 95 237 148 ;
C 182 ; WX 333 ; N Ogoneksmall ; B 113 -177 338 8 ;
C 183 ; WX 333 ; N Ringsmall ; B 73 526 260 713 ;
C 184 ; WX 333 ; N Cedillasmall ; B 72 -182 255 7 ;
C 188 ; WX 771 ; N onequarter ; B 60 -37 720 640 ;
C 189 ; WX 771 ; N onehalf ; B 60 -37 726 640 ;
C 190 ; WX 771 ; N threequarters ; B 42 -37 720 640 ;
C 191 ; WX 250 ; N questiondownsmall ; B 22 -8 228 447 ;
C 192 ; WX 771 ; N oneeighth ; B 60 -37 726 640 ;
C 193 ; WX 771 ; N threeeighths ; B 42 -37 726 640 ;
C 194 ; WX 771 ; N fiveeighths ; B 50 -37 726 640 ;
C 195 ; WX 771 ; N seveneighths ; B 44 -37 726 640 ;
C 196 ; WX 771 ; N onethird ; B 60 -37 712 640 ;
C 197 ; WX 771 ; N twothirds ; B 36 -37 712 640 ;
C 200 ; WX 302 ; N zerosuperior ; B 25 297 277 637 ;
C 201 ; WX 302 ; N onesuperior ; B 43 306 246 637 ;
C 202 ; WX 302 ; N twosuperior ; B 19 306 274 637 ;
C 203 ; WX 302 ; N threesuperior ; B 15 297 260 637 ;
C 204 ; WX 302 ; N foursuperior ; B 18 297 279 637 ;
C 205 ; WX 302 ; N fivesuperior ; B 33 297 266 637 ;
C 206 ; WX 302 ; N sixsuperior ; B 31 297 280 637 ;
C 207 ; WX 302 ; N sevensuperior ; B 26 297 278 628 ;
C 208 ; WX 302 ; N eightsuperior ; B 27 297 274 637 ;
C 209 ; WX 302 ; N ninesuperior ; B 24 297 273 637 ;
C 210 ; WX 302 ; N zeroinferior ; B 25 -8 277 332 ;
C 211 ; WX 302 ; N oneinferior ; B 43 0 246 331 ;
C 212 ; WX 302 ; N twoinferior ; B 19 0 274 331 ;
C 213 ; WX 302 ; N threeinferior ; B 15 -9 260 331 ;
C 214 ; WX 302 ; N fourinferior ; B 18 -9 279 331 ;
C 215 ; WX 302 ; N fiveinferior ; B 33 -8 266 332 ;
C 216 ; WX 302 ; N sixinferior ; B 31 -8 280 332 ;
C 217 ; WX 302 ; N seveninferior ; B 26 -8 278 323 ;
C 218 ; WX 302 ; N eightinferior ; B 27 -8 274 332 ;
C 219 ; WX 302 ; N nineinferior ; B 24 -10 273 330 ;
C 220 ; WX 271 ; N centinferior ; B 22 -108 256 333 ;
C 221 ; WX 292 ; N dollarinferior ; B 19 -41 272 349 ;
C 222 ; WX 177 ; N periodinferior ; B 41 -8 136 65 ;
C 223 ; WX 177 ; N commainferior ; B 34 -87 143 67 ;
C 224 ; WX 500 ; N Agravesmall ; B 7 0 492 693 ;
C 225 ; WX 500 ; N Aacutesmall ; B 7 0 492 693 ;
C 226 ; WX 500 ; N Acircumflexsmall ; B 7 0 492 682 ;
C 227 ; WX 500 ; N Atildesmall ; B 7 0 492 644 ;
C 228 ; WX 500 ; N Adieresissmall ; B 7 0 492 635 ;
C 229 ; WX 500 ; N Aringsmall ; B 7 0 492 713 ;
C 230 ; WX 625 ; N AEsmall ; B -27 0 602 440 ;
C 231 ; WX 521 ; N Ccedillasmall ; B 35 -208 504 451 ;
C 232 ; WX 417 ; N Egravesmall ; B 13 0 408 693 ;
C 233 ; WX 417 ; N Eacutesmall ; B 13 0 408 693 ;
C 234 ; WX 417 ; N Ecircumflexsmall ; B 13 0 408 682 ;
C 235 ; WX 417 ; N Edieresissmall ; B 13 0 408 635 ;
C 236 ; WX 250 ; N Igravesmall ; B 17 0 229 693 ;
C 237 ; WX 250 ; N Iacutesmall ; B 23 0 234 693 ;
C 238 ; WX 250 ; N Icircumflexsmall ; B -12 0 263 682 ;
C 239 ; WX 250 ; N Idieresissmall ; B -14 0 265 635 ;
C 240 ; WX 552 ; N Ethsmall ; B 18 0 515 445 ;
C 241 ; WX 583 ; N Ntildesmall ; B 26 -4 565 644 ;
C 242 ; WX 594 ; N Ogravesmall ; B 41 -11 553 693 ;
C 243 ; WX 594 ; N Oacutesmall ; B 41 -11 553 693 ;
C 244 ; WX 594 ; N Ocircumflexsmall ; B 41 -11 553 682 ;
C 245 ; WX 594 ; N Otildesmall ; B 41 -11 553 644 ;
C 246 ; WX 594 ; N Odieresissmall ; B 41 -11 553 635 ;
C 247 ; WX 708 ; N OEsmall ; B 38 -4 684 445 ;
C 248 ; WX 594 ; N Oslashsmall ; B 41 -36 553 477 ;
C 249 ; WX 563 ; N Ugravesmall ; B 14 -11 554 693 ;
C 250 ; WX 563 ; N Uacutesmall ; B 14 -11 554 693 ;
C 251 ; WX 563 ; N Ucircumflexsmall ; B 14 -11 554 682 ;
C 252 ; WX 563 ; N Udieresissmall ; B 14 -11 554 635 ;
C 253 ; WX 521 ; N Yacutesmall ; B 11 0 512 693 ;
C 254 ; WX 396 ; N Thornsmall ; B 19 0 386 440 ;
C 255 ; WX 521 ; N Ydieresissmall ; B 11 0 512 635 ;
EndCharMetrics
StartKernData
StartKernPairs 239
KPX zerooldstyle threeoldstyle -20
KPX oneoldstyle threeoldstyle -75
KPX oneoldstyle fouroldstyle -15
KPX threeoldstyle fiveoldstyle -20
KPX fouroldstyle twooldstyle 20
KPX fouroldstyle fouroldstyle 20
KPX fouroldstyle nineoldstyle 10
KPX fiveoldstyle comma -40
KPX fiveoldstyle period -45
KPX fiveoldstyle oneoldstyle -10
KPX fiveoldstyle sevenoldstyle -10
KPX sixoldstyle threeoldstyle -5
KPX sixoldstyle nineoldstyle 10
KPX sevenoldstyle comma -30
KPX sevenoldstyle period -40
KPX eightoldstyle threeoldstyle -15
KPX eightoldstyle fiveoldstyle -20
KPX colon space 12
KPX semicolon space 12
KPX Asmall Csmall -20
KPX Asmall Gsmall -25
KPX Asmall Osmall -28
KPX Asmall Qsmall -23
KPX Asmall Tsmall -45
KPX Asmall Usmall -38
KPX Asmall Vsmall -68
KPX Asmall Wsmall -70
KPX Asmall Xsmall -25
KPX Asmall Ysmall -58
KPX Bsmall comma -25
KPX Bsmall period -30
KPX Bsmall Asmall -15
KPX Bsmall Tsmall -15
KPX Bsmall Vsmall -33
KPX Bsmall Wsmall -46
KPX Bsmall Adieresissmall -15
KPX Bsmall Aringsmall -15
KPX Csmall comma -15
KPX Csmall period -15
KPX Dsmall comma -60
KPX Dsmall period -65
KPX Dsmall Asmall -40
KPX Dsmall Vsmall -23
KPX Dsmall Wsmall -58
KPX Dsmall Ysmall -48
KPX Dsmall Adieresissmall -40
KPX Dsmall Aringsmall -40
KPX Esmall period -10
KPX Esmall Vsmall 12
KPX Esmall Wsmall -13
KPX Fsmall comma -50
KPX Fsmall period -55
KPX Fsmall colon -10
KPX Fsmall Asmall -35
KPX Fsmall Adieresissmall -35
KPX Fsmall Aringsmall -35
KPX Gsmall period -15
KPX Hsmall Ssmall 25
KPX Hsmall Zsmall 25
KPX Jsmall comma -38
KPX Jsmall period -53
KPX Jsmall colon -15
KPX Jsmall Asmall -10
KPX Jsmall Adieresissmall -10
KPX Jsmall Aringsmall -10
KPX Ksmall Asmall -10
KPX Ksmall Csmall -23
KPX Ksmall Gsmall -23
KPX Ksmall Osmall -28
KPX Ksmall Qsmall -28
KPX Ksmall Wsmall -38
KPX Ksmall Odieresissmall -28
KPX Lsmall Asmall -25
KPX Lsmall Tsmall -48
KPX Lsmall Usmall -13
KPX Lsmall Vsmall -58
KPX Lsmall Wsmall -75
KPX Lsmall Ysmall -60
KPX Lsmall Udieresissmall -13
KPX Nsmall comma -40
KPX Nsmall period -50
KPX Nsmall Asmall -15
KPX Nsmall Adieresissmall -15
KPX Nsmall Aringsmall -15
KPX Osmall comma -25
KPX Osmall period -40
KPX Osmall Asmall -48
KPX Osmall Tsmall -26
KPX Osmall Vsmall -40
KPX Osmall Wsmall -45
KPX Osmall Xsmall -35
KPX Osmall Ysmall -53
KPX Osmall Adieresissmall -48
KPX Osmall Aringsmall -48
KPX Psmall comma -65
KPX Psmall period -70
KPX Psmall colon 2
KPX Psmall semicolon 12
KPX Psmall Asmall -45
KPX Psmall Csmall 12
KPX Psmall Esmall 10
KPX Psmall Gsmall 12
KPX Psmall Hsmall 10
KPX Psmall Ismall 12
KPX Psmall Osmall 12
KPX Psmall Tsmall -3
KPX Psmall Ysmall -13
KPX Psmall Adieresissmall -45
KPX Psmall Aringsmall -45
KPX Qsmall comma -23
KPX Qsmall period -43
KPX Qsmall Asmall -38
KPX Qsmall Tsmall -38
KPX Qsmall Usmall -13
KPX Qsmall Vsmall -40
KPX Qsmall Wsmall -50
KPX Qsmall Xsmall -41
KPX Qsmall Ysmall -48
KPX Rsmall Csmall -15
KPX Rsmall Gsmall -15
KPX Rsmall Osmall -20
KPX Rsmall Qsmall -20
KPX Rsmall Tsmall -33
KPX Rsmall Usmall -15
KPX Rsmall Vsmall -43
KPX Rsmall Wsmall -65
KPX Rsmall Xsmall -13
KPX Rsmall Ysmall -56
KPX Rsmall Odieresissmall -20
KPX Rsmall Udieresissmall -15
KPX Ssmall comma -25
KPX Ssmall period -25
KPX Tsmall comma -35
KPX Tsmall period -50
KPX Tsmall colon -10
KPX Tsmall Asmall -51
KPX Tsmall Csmall -13
KPX Tsmall Gsmall -13
KPX Tsmall Osmall -13
KPX Tsmall Qsmall -13
KPX Tsmall Ssmall 12
KPX Tsmall Vsmall -25
KPX Tsmall Wsmall -25
KPX Tsmall Xsmall -13
KPX Tsmall Ysmall -13
KPX Tsmall Adieresissmall -51
KPX Tsmall Aringsmall -51
KPX Tsmall Odieresissmall -13
KPX Usmall comma -45
KPX Usmall period -55
KPX Usmall Asmall -33
KPX Usmall Adieresissmall -33
KPX Usmall Aringsmall -33
KPX Vsmall comma -83
KPX Vsmall hyphen -15
KPX Vsmall period -98
KPX Vsmall colon -23
KPX Vsmall semicolon -13
KPX Vsmall Asmall -73
KPX Vsmall Csmall -28
KPX Vsmall Gsmall -28
KPX Vsmall Osmall -41
KPX Vsmall Qsmall -33
KPX Vsmall Tsmall -13
KPX Vsmall Adieresissmall -73
KPX Vsmall Aringsmall -73
KPX Vsmall Odieresissmall -41
KPX Wsmall space 12
KPX Wsmall comma -60
KPX Wsmall hyphen -30
KPX Wsmall period -60
KPX Wsmall colon -25
KPX Wsmall semicolon -13
KPX Wsmall Asmall -68
KPX Wsmall Csmall -28
KPX Wsmall Gsmall -20
KPX Wsmall Osmall -20
KPX Wsmall Qsmall -28
KPX Wsmall Tsmall -13
KPX Wsmall Adieresissmall -68
KPX Wsmall Aringsmall -68
KPX Wsmall Odieresissmall -20
KPX Xsmall Asmall -20
KPX Xsmall Csmall -28
KPX Xsmall Gsmall -20
KPX Xsmall Osmall -20
KPX Xsmall Qsmall -20
KPX Xsmall Tsmall -13
KPX Xsmall Vsmall -25
KPX Xsmall Wsmall -25
KPX Xsmall Ysmall -25
KPX Xsmall Odieresissmall -20
KPX Ysmall comma -73
KPX Ysmall hyphen -25
KPX Ysmall period -78
KPX Ysmall colon -28
KPX Ysmall semicolon -13
KPX Ysmall Asmall -68
KPX Ysmall Csmall -28
KPX Ysmall Gsmall -20
KPX Ysmall Msmall -13
KPX Ysmall Osmall -33
KPX Ysmall Qsmall -38
KPX Ysmall Ssmall -13
KPX Ysmall Tsmall -13
KPX Ysmall Vsmall -13
KPX Ysmall Wsmall -13
KPX Ysmall Xsmall -13
KPX Ysmall Ysmall -3
KPX Ysmall Adieresissmall -68
KPX Ysmall Aringsmall -68
KPX Ysmall Odieresissmall -33
KPX Adieresissmall Csmall -20
KPX Adieresissmall Gsmall -25
KPX Adieresissmall Osmall -28
KPX Adieresissmall Qsmall -23
KPX Adieresissmall Tsmall -45
KPX Adieresissmall Usmall -38
KPX Adieresissmall Vsmall -68
KPX Adieresissmall Wsmall -70
KPX Adieresissmall Xsmall -25
KPX Adieresissmall Ysmall -58
KPX Aringsmall Csmall -20
KPX Aringsmall Gsmall -25
KPX Aringsmall Osmall -28
KPX Aringsmall Qsmall -23
KPX Aringsmall Tsmall -45
KPX Aringsmall Usmall -38
KPX Aringsmall Vsmall -68
KPX Aringsmall Wsmall -70
KPX Aringsmall Xsmall -25
KPX Aringsmall Ysmall -58
KPX Odieresissmall Asmall -48
KPX Odieresissmall Tsmall -26
KPX Odieresissmall Vsmall -40
KPX Odieresissmall Wsmall -45
KPX Odieresissmall Xsmall -35
KPX Odieresissmall Ysmall -53
KPX Udieresissmall Asmall -33
EndKernPairs
EndKernData
EndFontMetrics
